2017-10-17 14:05:47.461818: I tensorflow/core/common_runtime/gpu/gpu_device.cc:940] Found device 0 with properties: 
name: Tesla P100-PCIE-16GB
major: 6 minor: 0 memoryClockRate (GHz) 1.3285
pciBusID 0000:02:00.0
Total memory: 15.89GiB
Free memory: 15.61GiB
2017-10-17 14:05:47.462253: I tensorflow/core/common_runtime/gpu/gpu_device.cc:961] DMA: 0 
2017-10-17 14:05:47.462271: I tensorflow/core/common_runtime/gpu/gpu_device.cc:971] 0:   Y 
2017-10-17 14:05:47.462291: I tensorflow/core/common_runtime/gpu/gpu_device.cc:1030] Creating TensorFlow device (/gpu:0) -> (device: 0, name: Tesla P100-PCIE-16GB, pci bus id: 0000:02:00.0)
2017-10-17 14:05:47.684830: I tensorflow/core/distributed_runtime/rpc/grpc_channel.cc:215] Initialize GrpcChannelCache for job ps -> {0 -> nid02367:2230, 1 -> nid02368:2230, 2 -> nid02369:2230, 3 -> nid02370:2230, 4 -> nid02371:2230, 5 -> nid02372:2230, 6 -> nid02373:2230, 7 -> nid02374:2230, 8 -> nid02375:2230, 9 -> nid02376:2230, 10 -> nid02377:2230, 11 -> nid02378:2230, 12 -> nid02379:2230, 13 -> nid02380:2230, 14 -> nid02381:2230, 15 -> nid02382:2230, 16 -> nid02383:2230, 17 -> nid02384:2230, 18 -> nid02385:2230, 19 -> nid02386:2230, 20 -> nid02387:2230, 21 -> nid02388:2230, 22 -> nid02389:2230, 23 -> nid02390:2230, 24 -> nid02391:2230, 25 -> nid02392:2230, 26 -> nid02393:2230, 27 -> nid02394:2230, 28 -> nid02395:2230, 29 -> nid03577:2230, 30 -> nid03578:2230, 31 -> nid03579:2230}
2017-10-17 14:05:47.684876: I tensorflow/core/distributed_runtime/rpc/grpc_channel.cc:215] Initialize GrpcChannelCache for job worker -> {0 -> nid02367:2220, 1 -> nid02368:2220, 2 -> nid02369:2220, 3 -> nid02370:2220, 4 -> nid02371:2220, 5 -> nid02372:2220, 6 -> nid02373:2220, 7 -> nid02374:2220, 8 -> nid02375:2220, 9 -> nid02376:2220, 10 -> nid02377:2220, 11 -> nid02378:2220, 12 -> nid02379:2220, 13 -> nid02380:2220, 14 -> nid02381:2220, 15 -> nid02382:2220, 16 -> nid02383:2220, 17 -> nid02384:2220, 18 -> nid02385:2220, 19 -> nid02386:2220, 20 -> nid02387:2220, 21 -> localhost:2220, 22 -> nid02389:2220, 23 -> nid02390:2220, 24 -> nid02391:2220, 25 -> nid02392:2220, 26 -> nid02393:2220, 27 -> nid02394:2220, 28 -> nid02395:2220, 29 -> nid03577:2220, 30 -> nid03578:2220, 31 -> nid03579:2220}
2017-10-17 14:05:47.685644: I tensorflow/core/distributed_runtime/rpc/grpc_server_lib.cc:316] Started server with target: grpc://localhost:2220
2017-10-17 14:06:27.894474: I tensorflow/core/distributed_runtime/master_session.cc:999] Start master session a22066c3e3f83b8a with config: 
intra_op_parallelism_threads: 1
allow_soft_placement: true

2017-10-17 14:07:06.763198: I tensorflow/core/distributed_runtime/master_session.cc:999] Start master session 6cc46d94b60c34c5 with config: 
intra_op_parallelism_threads: 1
allow_soft_placement: true

TensorFlow:  1.2
Model:       resnet50
Mode:        training
Batch size:  32 global
             32.0 per device
Devices:     ['/job:worker/task:21/gpu:0']
Data format: NCHW
Optimizer:   sgd
Variables:   distributed_replicated
Sync:        True
==========
Generating model
Running warm up
Done warm up
Step	Img/sec	loss
Starting real work at step 320 at time Tue Oct 17 14:07:22 2017
1	on average processed 32 images in 0.521126 seconds	8.071
2	on average processed 32 images in 0.531641 seconds	8.070
3	on average processed 32 images in 0.529665 seconds	8.007
4	on average processed 32 images in 0.529081 seconds	7.943
5	on average processed 32 images in 0.532398 seconds	7.968
6	on average processed 32 images in 0.530021 seconds	7.901
7	on average processed 32 images in 0.526696 seconds	7.874
8	on average processed 32 images in 0.525040 seconds	7.921
9	on average processed 32 images in 0.522185 seconds	7.741
10	on average processed 32 images in 0.519731 seconds	8.141
11	on average processed 32 images in 0.519678 seconds	7.812
12	on average processed 32 images in 0.516925 seconds	8.034
13	on average processed 32 images in 0.517344 seconds	7.944
14	on average processed 32 images in 0.518108 seconds	7.884
15	on average processed 32 images in 0.517652 seconds	7.820
16	on average processed 32 images in 0.516775 seconds	7.996
17	on average processed 32 images in 0.515926 seconds	7.893
18	on average processed 32 images in 0.514988 seconds	8.008
19	on average processed 32 images in 0.514105 seconds	7.904
20	on average processed 32 images in 0.513406 seconds	7.835
21	on average processed 32 images in 0.514744 seconds	7.830
22	on average processed 32 images in 0.515641 seconds	7.891
23	on average processed 32 images in 0.516579 seconds	7.736
24	on average processed 32 images in 0.516301 seconds	7.963
25	on average processed 32 images in 0.516127 seconds	7.840
26	on average processed 32 images in 0.517307 seconds	7.951
27	on average processed 32 images in 0.516848 seconds	7.681
28	on average processed 32 images in 0.517936 seconds	7.952
29	on average processed 32 images in 0.518519 seconds	7.775
30	on average processed 32 images in 0.518394 seconds	7.818
31	on average processed 32 images in 0.517805 seconds	7.745
32	on average processed 32 images in 0.518084 seconds	7.838
33	on average processed 32 images in 0.517406 seconds	8.020
34	on average processed 32 images in 0.516730 seconds	7.956
35	on average processed 32 images in 0.516274 seconds	7.873
36	on average processed 32 images in 0.516773 seconds	7.799
37	on average processed 32 images in 0.516911 seconds	7.865
38	on average processed 32 images in 0.516749 seconds	7.818
39	on average processed 32 images in 0.517111 seconds	7.630
40	on average processed 32 images in 0.516795 seconds	7.615
41	on average processed 32 images in 0.517344 seconds	7.958
42	on average processed 32 images in 0.517546 seconds	8.128
43	on average processed 32 images in 0.516930 seconds	7.764
44	on average processed 32 images in 0.516982 seconds	7.808
45	on average processed 32 images in 0.517125 seconds	7.786
46	on average processed 32 images in 0.517535 seconds	7.916
47	on average processed 32 images in 0.517505 seconds	7.845
48	on average processed 32 images in 0.517424 seconds	7.633
49	on average processed 32 images in 0.517350 seconds	7.896
50	on average processed 32 images in 0.517122 seconds	7.820
51	on average processed 32 images in 0.517007 seconds	7.835
52	on average processed 32 images in 0.516941 seconds	7.822
53	on average processed 32 images in 0.516964 seconds	7.727
54	on average processed 32 images in 0.516904 seconds	7.852
55	on average processed 32 images in 0.516788 seconds	7.665
56	on average processed 32 images in 0.516477 seconds	7.900
57	on average processed 32 images in 0.516567 seconds	7.839
58	on average processed 32 images in 0.516451 seconds	7.842
59	on average processed 32 images in 0.516697 seconds	7.961
60	on average processed 32 images in 0.516618 seconds	7.722
61	on average processed 32 images in 0.516820 seconds	7.826
62	on average processed 32 images in 0.516765 seconds	7.748
63	on average processed 32 images in 0.517006 seconds	7.880
64	on average processed 32 images in 0.516700 seconds	7.811
65	on average processed 32 images in 0.517059 seconds	7.831
66	on average processed 32 images in 0.516719 seconds	7.529
67	on average processed 32 images in 0.516963 seconds	7.841
68	on average processed 32 images in 0.517329 seconds	7.852
69	on average processed 32 images in 0.517454 seconds	7.781
70	on average processed 32 images in 0.517341 seconds	7.896
71	on average processed 32 images in 0.517459 seconds	7.879
72	on average processed 32 images in 0.517648 seconds	7.725
73	on average processed 32 images in 0.517534 seconds	7.665
74	on average processed 32 images in 0.517605 seconds	7.691
75	on average processed 32 images in 0.517601 seconds	7.957
76	on average processed 32 images in 0.517355 seconds	7.606
77	on average processed 32 images in 0.517538 seconds	7.905
78	on average processed 32 images in 0.517591 seconds	7.819
79	on average processed 32 images in 0.517603 seconds	7.991
80	on average processed 32 images in 0.517506 seconds	7.670
81	on average processed 32 images in 0.517723 seconds	7.798
82	on average processed 32 images in 0.517840 seconds	7.896
83	on average processed 32 images in 0.517930 seconds	7.657
84	on average processed 32 images in 0.518094 seconds	7.742
85	on average processed 32 images in 0.518255 seconds	7.880
86	on average processed 32 images in 0.518457 seconds	7.709
87	on average processed 32 images in 0.518309 seconds	7.912
88	on average processed 32 images in 0.517961 seconds	7.813
89	on average processed 32 images in 0.518120 seconds	7.715
90	on average processed 32 images in 0.518397 seconds	7.736
91	on average processed 32 images in 0.518627 seconds	8.040
92	on average processed 32 images in 0.518529 seconds	7.902
93	on average processed 32 images in 0.518557 seconds	7.605
94	on average processed 32 images in 0.518630 seconds	7.682
95	on average processed 32 images in 0.518544 seconds	7.894
96	on average processed 32 images in 0.518697 seconds	7.514
97	on average processed 32 images in 0.519052 seconds	7.653
98	on average processed 32 images in 0.518967 seconds	7.672
99	on average processed 32 images in 0.518782 seconds	7.782
100	on average processed 32 images in 0.518973 seconds	7.586
Finishing real work at step 3520 at time Tue Oct 17 14:08:14 2017
----------------------------------------------------------------
total images/sec: 1970.47
----------------------------------------------------------------
