2017-10-09 00:17:57.815546: I tensorflow/core/common_runtime/gpu/gpu_device.cc:940] Found device 0 with properties: 
name: Tesla P100-PCIE-16GB
major: 6 minor: 0 memoryClockRate (GHz) 1.3285
pciBusID 0000:02:00.0
Total memory: 15.89GiB
Free memory: 15.61GiB
2017-10-09 00:17:57.816154: I tensorflow/core/common_runtime/gpu/gpu_device.cc:961] DMA: 0 
2017-10-09 00:17:57.816171: I tensorflow/core/common_runtime/gpu/gpu_device.cc:971] 0:   Y 
2017-10-09 00:17:57.824400: I tensorflow/core/common_runtime/gpu/gpu_device.cc:1030] Creating TensorFlow device (/gpu:0) -> (device: 0, name: Tesla P100-PCIE-16GB, pci bus id: 0000:02:00.0)
2017-10-09 00:17:58.162699: I tensorflow/core/distributed_runtime/rpc/grpc_channel.cc:215] Initialize GrpcChannelCache for job ps -> {0 -> nid02555:2230, 1 -> nid02556:2230, 2 -> nid02557:2230, 3 -> nid02558:2230, 4 -> nid02559:2230, 5 -> nid02560:2230, 6 -> nid02561:2230, 7 -> nid02562:2230, 8 -> nid02563:2230, 9 -> nid02564:2230, 10 -> nid02565:2230, 11 -> nid02566:2230, 12 -> nid02567:2230, 13 -> nid02568:2230, 14 -> nid02569:2230, 15 -> nid02570:2230, 16 -> nid02571:2230, 17 -> nid02572:2230, 18 -> nid02573:2230, 19 -> nid02574:2230, 20 -> nid02575:2230, 21 -> nid02576:2230, 22 -> nid02577:2230, 23 -> nid02578:2230, 24 -> nid02579:2230, 25 -> nid02580:2230, 26 -> nid02581:2230, 27 -> nid02582:2230, 28 -> nid02583:2230, 29 -> nid02584:2230, 30 -> nid02585:2230, 31 -> nid02586:2230}
2017-10-09 00:17:58.162744: I tensorflow/core/distributed_runtime/rpc/grpc_channel.cc:215] Initialize GrpcChannelCache for job worker -> {0 -> nid02555:2220, 1 -> localhost:2220, 2 -> nid02557:2220, 3 -> nid02558:2220, 4 -> nid02559:2220, 5 -> nid02560:2220, 6 -> nid02561:2220, 7 -> nid02562:2220, 8 -> nid02563:2220, 9 -> nid02564:2220, 10 -> nid02565:2220, 11 -> nid02566:2220, 12 -> nid02567:2220, 13 -> nid02568:2220, 14 -> nid02569:2220, 15 -> nid02570:2220, 16 -> nid02571:2220, 17 -> nid02572:2220, 18 -> nid02573:2220, 19 -> nid02574:2220, 20 -> nid02575:2220, 21 -> nid02576:2220, 22 -> nid02577:2220, 23 -> nid02578:2220, 24 -> nid02579:2220, 25 -> nid02580:2220, 26 -> nid02581:2220, 27 -> nid02582:2220, 28 -> nid02583:2220, 29 -> nid02584:2220, 30 -> nid02585:2220, 31 -> nid02586:2220}
2017-10-09 00:17:58.163491: I tensorflow/core/distributed_runtime/rpc/grpc_server_lib.cc:316] Started server with target: grpc://localhost:2220
2017-10-09 00:18:47.174300: I tensorflow/core/distributed_runtime/master_session.cc:999] Start master session 553c19d63db02ab2 with config: 
intra_op_parallelism_threads: 1
allow_soft_placement: true

TensorFlow:  1.2
Model:       inception3
Mode:        training
Batch size:  32 global
             32.0 per device
Devices:     ['/job:worker/task:1/gpu:0']
Data format: NCHW
Optimizer:   sgd
Variables:   distributed_replicated
Sync:        True
==========
Generating model
Running warm up
Done warm up
Step	Img/sec	loss
Starting real work at step 320 at time Mon Oct  9 00:19:06 2017
1	on average processed 32 images in 0.586558 seconds	7.353
2	on average processed 32 images in 0.578149 seconds	7.473
3	on average processed 32 images in 0.595934 seconds	7.420
4	on average processed 32 images in 0.596220 seconds	7.298
5	on average processed 32 images in 0.596336 seconds	7.380
6	on average processed 32 images in 0.594268 seconds	7.466
7	on average processed 32 images in 0.596184 seconds	7.400
8	on average processed 32 images in 0.595755 seconds	7.399
9	on average processed 32 images in 0.593295 seconds	7.336
10	on average processed 32 images in 0.593376 seconds	7.338
11	on average processed 32 images in 0.593635 seconds	7.403
12	on average processed 32 images in 0.595112 seconds	7.401
13	on average processed 32 images in 0.594522 seconds	7.349
14	on average processed 32 images in 0.592370 seconds	7.407
15	on average processed 32 images in 0.592721 seconds	7.339
16	on average processed 32 images in 0.592985 seconds	7.350
17	on average processed 32 images in 0.592869 seconds	7.418
18	on average processed 32 images in 0.593131 seconds	7.444
19	on average processed 32 images in 0.595023 seconds	7.305
20	on average processed 32 images in 0.593809 seconds	7.405
21	on average processed 32 images in 0.594487 seconds	7.360
22	on average processed 32 images in 0.595925 seconds	7.356
23	on average processed 32 images in 0.594906 seconds	7.268
24	on average processed 32 images in 0.595337 seconds	7.379
25	on average processed 32 images in 0.594518 seconds	7.360
26	on average processed 32 images in 0.594963 seconds	7.266
27	on average processed 32 images in 0.593884 seconds	7.230
28	on average processed 32 images in 0.594140 seconds	7.368
29	on average processed 32 images in 0.595760 seconds	7.253
30	on average processed 32 images in 0.597079 seconds	7.296
31	on average processed 32 images in 0.597085 seconds	7.280
32	on average processed 32 images in 0.597548 seconds	7.226
33	on average processed 32 images in 0.597432 seconds	7.176
34	on average processed 32 images in 0.597358 seconds	7.268
35	on average processed 32 images in 0.597957 seconds	7.310
36	on average processed 32 images in 0.598226 seconds	7.383
37	on average processed 32 images in 0.598617 seconds	7.306
38	on average processed 32 images in 0.598493 seconds	7.361
39	on average processed 32 images in 0.598485 seconds	7.308
40	on average processed 32 images in 0.598644 seconds	7.280
41	on average processed 32 images in 0.599129 seconds	7.315
42	on average processed 32 images in 0.599163 seconds	7.222
43	on average processed 32 images in 0.599287 seconds	7.303
44	on average processed 32 images in 0.598609 seconds	7.326
45	on average processed 32 images in 0.598795 seconds	7.199
46	on average processed 32 images in 0.598209 seconds	7.178
47	on average processed 32 images in 0.598574 seconds	7.318
48	on average processed 32 images in 0.598614 seconds	7.376
49	on average processed 32 images in 0.597747 seconds	7.200
50	on average processed 32 images in 0.597440 seconds	7.149
51	on average processed 32 images in 0.597005 seconds	7.230
52	on average processed 32 images in 0.597150 seconds	7.343
53	on average processed 32 images in 0.597215 seconds	7.107
54	on average processed 32 images in 0.596433 seconds	7.179
55	on average processed 32 images in 0.596820 seconds	7.293
56	on average processed 32 images in 0.596594 seconds	7.284
57	on average processed 32 images in 0.595837 seconds	7.355
58	on average processed 32 images in 0.595042 seconds	7.231
59	on average processed 32 images in 0.594930 seconds	7.192
60	on average processed 32 images in 0.595040 seconds	7.334
61	on average processed 32 images in 0.595006 seconds	7.293
62	on average processed 32 images in 0.595103 seconds	7.482
63	on average processed 32 images in 0.594893 seconds	7.345
64	on average processed 32 images in 0.594919 seconds	7.288
65	on average processed 32 images in 0.595083 seconds	7.195
66	on average processed 32 images in 0.594603 seconds	7.285
67	on average processed 32 images in 0.594974 seconds	7.389
68	on average processed 32 images in 0.594529 seconds	7.273
69	on average processed 32 images in 0.594928 seconds	7.236
70	on average processed 32 images in 0.594976 seconds	7.302
71	on average processed 32 images in 0.594382 seconds	7.198
72	on average processed 32 images in 0.594463 seconds	7.392
73	on average processed 32 images in 0.594620 seconds	7.267
74	on average processed 32 images in 0.594150 seconds	7.243
75	on average processed 32 images in 0.594593 seconds	7.317
76	on average processed 32 images in 0.594646 seconds	7.270
77	on average processed 32 images in 0.594641 seconds	7.272
78	on average processed 32 images in 0.594719 seconds	7.095
79	on average processed 32 images in 0.594764 seconds	7.245
80	on average processed 32 images in 0.594466 seconds	7.305
81	on average processed 32 images in 0.594547 seconds	7.134
82	on average processed 32 images in 0.594683 seconds	7.178
83	on average processed 32 images in 0.594670 seconds	7.252
84	on average processed 32 images in 0.594844 seconds	7.180
85	on average processed 32 images in 0.594907 seconds	7.214
86	on average processed 32 images in 0.594927 seconds	7.291
87	on average processed 32 images in 0.595000 seconds	7.226
88	on average processed 32 images in 0.594628 seconds	7.294
89	on average processed 32 images in 0.594712 seconds	7.269
90	on average processed 32 images in 0.594665 seconds	7.212
91	on average processed 32 images in 0.594827 seconds	7.337
92	on average processed 32 images in 0.595017 seconds	7.088
93	on average processed 32 images in 0.594711 seconds	7.318
94	on average processed 32 images in 0.595001 seconds	7.296
95	on average processed 32 images in 0.594903 seconds	7.329
96	on average processed 32 images in 0.594615 seconds	7.234
97	on average processed 32 images in 0.594349 seconds	7.317
98	on average processed 32 images in 0.594391 seconds	7.257
99	on average processed 32 images in 0.594690 seconds	7.260
100	on average processed 32 images in 0.594315 seconds	7.124
Finishing real work at step 3520 at time Mon Oct  9 00:20:05 2017
----------------------------------------------------------------
total images/sec: 1728.00
----------------------------------------------------------------
