2017-10-06 17:58:06.445999: I tensorflow/core/common_runtime/gpu/gpu_device.cc:940] Found device 0 with properties: 
name: Tesla P100-PCIE-16GB
major: 6 minor: 0 memoryClockRate (GHz) 1.3285
pciBusID 0000:02:00.0
Total memory: 15.89GiB
Free memory: 15.61GiB
2017-10-06 17:58:06.446451: I tensorflow/core/common_runtime/gpu/gpu_device.cc:961] DMA: 0 
2017-10-06 17:58:06.446473: I tensorflow/core/common_runtime/gpu/gpu_device.cc:971] 0:   Y 
2017-10-06 17:58:06.449000: I tensorflow/core/common_runtime/gpu/gpu_device.cc:1030] Creating TensorFlow device (/gpu:0) -> (device: 0, name: Tesla P100-PCIE-16GB, pci bus id: 0000:02:00.0)
2017-10-06 17:58:06.628399: I tensorflow/core/distributed_runtime/rpc/grpc_channel.cc:215] Initialize GrpcChannelCache for job ps -> {0 -> nid03374:2230, 1 -> nid03375:2230, 2 -> nid03376:2230, 3 -> nid03377:2230, 4 -> nid03378:2230, 5 -> nid03379:2230, 6 -> nid03380:2230, 7 -> nid03381:2230, 8 -> nid03382:2230, 9 -> nid03383:2230, 10 -> nid03384:2230, 11 -> nid03385:2230, 12 -> nid03386:2230, 13 -> nid03387:2230, 14 -> nid03388:2230, 15 -> nid03389:2230, 16 -> nid03390:2230, 17 -> nid03391:2230, 18 -> nid03392:2230, 19 -> nid03393:2230, 20 -> nid03394:2230, 21 -> nid03395:2230, 22 -> nid03396:2230, 23 -> nid03397:2230, 24 -> nid03398:2230, 25 -> nid03399:2230, 26 -> nid03400:2230, 27 -> nid03401:2230, 28 -> nid03402:2230, 29 -> nid03403:2230, 30 -> nid03404:2230, 31 -> nid03405:2230}
2017-10-06 17:58:06.628444: I tensorflow/core/distributed_runtime/rpc/grpc_channel.cc:215] Initialize GrpcChannelCache for job worker -> {0 -> nid03374:2220, 1 -> nid03375:2220, 2 -> nid03376:2220, 3 -> nid03377:2220, 4 -> nid03378:2220, 5 -> nid03379:2220, 6 -> nid03380:2220, 7 -> nid03381:2220, 8 -> nid03382:2220, 9 -> nid03383:2220, 10 -> nid03384:2220, 11 -> nid03385:2220, 12 -> nid03386:2220, 13 -> nid03387:2220, 14 -> nid03388:2220, 15 -> nid03389:2220, 16 -> nid03390:2220, 17 -> nid03391:2220, 18 -> nid03392:2220, 19 -> nid03393:2220, 20 -> nid03394:2220, 21 -> nid03395:2220, 22 -> nid03396:2220, 23 -> nid03397:2220, 24 -> localhost:2220, 25 -> nid03399:2220, 26 -> nid03400:2220, 27 -> nid03401:2220, 28 -> nid03402:2220, 29 -> nid03403:2220, 30 -> nid03404:2220, 31 -> nid03405:2220}
2017-10-06 17:58:06.629194: I tensorflow/core/distributed_runtime/rpc/grpc_server_lib.cc:316] Started server with target: grpc://localhost:2220
2017-10-06 17:58:46.541086: I tensorflow/core/distributed_runtime/master_session.cc:999] Start master session 59128b08919a792f with config: 
intra_op_parallelism_threads: 1
allow_soft_placement: true

TensorFlow:  1.2
Model:       resnet50
Mode:        training
Batch size:  32 global
             32.0 per device
Devices:     ['/job:worker/task:24/gpu:0']
Data format: NCHW
Optimizer:   sgd
Variables:   distributed_replicated
Sync:        True
==========
Generating model
Running warm up
Done warm up
Step	Img/sec	loss
Starting real work at step 320 at time Fri Oct  6 17:59:38 2017
1	on average processed 32 images in 0.518107 seconds	7.982
2	on average processed 32 images in 0.517530 seconds	7.965
3	on average processed 32 images in 0.514247 seconds	7.909
4	on average processed 32 images in 0.510970 seconds	7.900
5	on average processed 32 images in 0.508632 seconds	7.870
6	on average processed 32 images in 0.510070 seconds	7.991
7	on average processed 32 images in 0.507738 seconds	7.800
8	on average processed 32 images in 0.508317 seconds	7.732
9	on average processed 32 images in 0.510753 seconds	7.796
10	on average processed 32 images in 0.511872 seconds	7.928
11	on average processed 32 images in 0.514325 seconds	7.933
12	on average processed 32 images in 0.513255 seconds	7.987
13	on average processed 32 images in 0.512912 seconds	8.018
14	on average processed 32 images in 0.512665 seconds	7.999
15	on average processed 32 images in 0.514628 seconds	7.730
16	on average processed 32 images in 0.515891 seconds	7.926
17	on average processed 32 images in 0.516557 seconds	7.838
18	on average processed 32 images in 0.516820 seconds	7.832
19	on average processed 32 images in 0.517526 seconds	8.219
20	on average processed 32 images in 0.516858 seconds	7.785
21	on average processed 32 images in 0.517056 seconds	7.838
22	on average processed 32 images in 0.517675 seconds	7.687
23	on average processed 32 images in 0.517700 seconds	7.982
24	on average processed 32 images in 0.517791 seconds	7.793
25	on average processed 32 images in 0.517704 seconds	7.814
26	on average processed 32 images in 0.517779 seconds	7.913
27	on average processed 32 images in 0.518315 seconds	7.902
28	on average processed 32 images in 0.518070 seconds	7.938
29	on average processed 32 images in 0.517812 seconds	7.813
30	on average processed 32 images in 0.518242 seconds	7.886
31	on average processed 32 images in 0.518158 seconds	7.849
32	on average processed 32 images in 0.517847 seconds	7.677
33	on average processed 32 images in 0.517199 seconds	7.754
34	on average processed 32 images in 0.517820 seconds	7.815
35	on average processed 32 images in 0.517997 seconds	7.911
36	on average processed 32 images in 0.518676 seconds	7.567
37	on average processed 32 images in 0.519094 seconds	7.996
38	on average processed 32 images in 0.519095 seconds	7.803
39	on average processed 32 images in 0.519029 seconds	7.645
40	on average processed 32 images in 0.518361 seconds	7.984
41	on average processed 32 images in 0.518796 seconds	8.032
42	on average processed 32 images in 0.518240 seconds	7.723
43	on average processed 32 images in 0.518669 seconds	7.947
44	on average processed 32 images in 0.518439 seconds	7.848
45	on average processed 32 images in 0.518827 seconds	7.976
46	on average processed 32 images in 0.518813 seconds	7.768
47	on average processed 32 images in 0.518529 seconds	7.934
48	on average processed 32 images in 0.518562 seconds	7.741
49	on average processed 32 images in 0.519075 seconds	7.693
50	on average processed 32 images in 0.519449 seconds	7.808
51	on average processed 32 images in 0.519051 seconds	7.850
52	on average processed 32 images in 0.518578 seconds	8.103
53	on average processed 32 images in 0.519140 seconds	7.614
54	on average processed 32 images in 0.519333 seconds	7.830
55	on average processed 32 images in 0.519189 seconds	7.861
56	on average processed 32 images in 0.519384 seconds	7.692
57	on average processed 32 images in 0.519295 seconds	7.845
58	on average processed 32 images in 0.519383 seconds	8.060
59	on average processed 32 images in 0.519576 seconds	7.920
60	on average processed 32 images in 0.519708 seconds	7.875
61	on average processed 32 images in 0.519408 seconds	7.651
62	on average processed 32 images in 0.519205 seconds	7.465
63	on average processed 32 images in 0.519068 seconds	7.863
64	on average processed 32 images in 0.518930 seconds	7.764
65	on average processed 32 images in 0.518965 seconds	7.649
66	on average processed 32 images in 0.518789 seconds	7.823
67	on average processed 32 images in 0.518849 seconds	7.875
68	on average processed 32 images in 0.519308 seconds	7.849
69	on average processed 32 images in 0.519559 seconds	7.984
70	on average processed 32 images in 0.519476 seconds	7.763
71	on average processed 32 images in 0.519485 seconds	7.597
72	on average processed 32 images in 0.519347 seconds	7.637
73	on average processed 32 images in 0.519072 seconds	7.545
74	on average processed 32 images in 0.519263 seconds	7.897
75	on average processed 32 images in 0.519114 seconds	7.747
76	on average processed 32 images in 0.519170 seconds	7.812
77	on average processed 32 images in 0.519108 seconds	7.821
78	on average processed 32 images in 0.519159 seconds	7.564
79	on average processed 32 images in 0.519409 seconds	7.881
80	on average processed 32 images in 0.519428 seconds	7.744
81	on average processed 32 images in 0.519355 seconds	7.932
82	on average processed 32 images in 0.519342 seconds	7.651
83	on average processed 32 images in 0.519270 seconds	7.776
84	on average processed 32 images in 0.519126 seconds	7.730
85	on average processed 32 images in 0.518834 seconds	7.758
86	on average processed 32 images in 0.519192 seconds	7.684
87	on average processed 32 images in 0.518919 seconds	7.720
88	on average processed 32 images in 0.518740 seconds	7.654
89	on average processed 32 images in 0.518924 seconds	7.766
90	on average processed 32 images in 0.518972 seconds	7.845
91	on average processed 32 images in 0.519008 seconds	7.535
92	on average processed 32 images in 0.519181 seconds	7.754
93	on average processed 32 images in 0.519361 seconds	7.712
94	on average processed 32 images in 0.519233 seconds	7.557
95	on average processed 32 images in 0.519140 seconds	7.780
96	on average processed 32 images in 0.519159 seconds	7.633
97	on average processed 32 images in 0.519169 seconds	7.500
98	on average processed 32 images in 0.519265 seconds	7.594
99	on average processed 32 images in 0.519443 seconds	7.643
100	on average processed 32 images in 0.519457 seconds	7.814
Finishing real work at step 3519 at time Fri Oct  6 18:00:30 2017
----------------------------------------------------------------
total images/sec: 1963.50
----------------------------------------------------------------
