2017-10-06 17:58:06.425173: I tensorflow/core/common_runtime/gpu/gpu_device.cc:940] Found device 0 with properties: 
name: Tesla P100-PCIE-16GB
major: 6 minor: 0 memoryClockRate (GHz) 1.3285
pciBusID 0000:02:00.0
Total memory: 15.89GiB
Free memory: 15.61GiB
2017-10-06 17:58:06.425793: I tensorflow/core/common_runtime/gpu/gpu_device.cc:961] DMA: 0 
2017-10-06 17:58:06.425831: I tensorflow/core/common_runtime/gpu/gpu_device.cc:971] 0:   Y 
2017-10-06 17:58:06.427631: I tensorflow/core/common_runtime/gpu/gpu_device.cc:1030] Creating TensorFlow device (/gpu:0) -> (device: 0, name: Tesla P100-PCIE-16GB, pci bus id: 0000:02:00.0)
2017-10-06 17:58:06.603397: I tensorflow/core/distributed_runtime/rpc/grpc_channel.cc:215] Initialize GrpcChannelCache for job ps -> {0 -> nid03374:2230, 1 -> nid03375:2230, 2 -> nid03376:2230, 3 -> nid03377:2230, 4 -> nid03378:2230, 5 -> nid03379:2230, 6 -> nid03380:2230, 7 -> nid03381:2230, 8 -> nid03382:2230, 9 -> nid03383:2230, 10 -> nid03384:2230, 11 -> nid03385:2230, 12 -> nid03386:2230, 13 -> nid03387:2230, 14 -> nid03388:2230, 15 -> nid03389:2230, 16 -> nid03390:2230, 17 -> nid03391:2230, 18 -> nid03392:2230, 19 -> nid03393:2230, 20 -> nid03394:2230, 21 -> nid03395:2230, 22 -> nid03396:2230, 23 -> nid03397:2230, 24 -> nid03398:2230, 25 -> nid03399:2230, 26 -> nid03400:2230, 27 -> nid03401:2230, 28 -> nid03402:2230, 29 -> nid03403:2230, 30 -> nid03404:2230, 31 -> nid03405:2230}
2017-10-06 17:58:06.603439: I tensorflow/core/distributed_runtime/rpc/grpc_channel.cc:215] Initialize GrpcChannelCache for job worker -> {0 -> nid03374:2220, 1 -> nid03375:2220, 2 -> nid03376:2220, 3 -> nid03377:2220, 4 -> nid03378:2220, 5 -> nid03379:2220, 6 -> nid03380:2220, 7 -> nid03381:2220, 8 -> nid03382:2220, 9 -> nid03383:2220, 10 -> nid03384:2220, 11 -> nid03385:2220, 12 -> nid03386:2220, 13 -> nid03387:2220, 14 -> nid03388:2220, 15 -> nid03389:2220, 16 -> nid03390:2220, 17 -> nid03391:2220, 18 -> nid03392:2220, 19 -> nid03393:2220, 20 -> nid03394:2220, 21 -> nid03395:2220, 22 -> nid03396:2220, 23 -> nid03397:2220, 24 -> nid03398:2220, 25 -> nid03399:2220, 26 -> nid03400:2220, 27 -> nid03401:2220, 28 -> nid03402:2220, 29 -> localhost:2220, 30 -> nid03404:2220, 31 -> nid03405:2220}
2017-10-06 17:58:06.604144: I tensorflow/core/distributed_runtime/rpc/grpc_server_lib.cc:316] Started server with target: grpc://localhost:2220
2017-10-06 17:58:46.125788: I tensorflow/core/distributed_runtime/master_session.cc:999] Start master session 5b3be09903e8b7da with config: 
intra_op_parallelism_threads: 1
allow_soft_placement: true

TensorFlow:  1.2
Model:       resnet50
Mode:        training
Batch size:  32 global
             32.0 per device
Devices:     ['/job:worker/task:29/gpu:0']
Data format: NCHW
Optimizer:   sgd
Variables:   distributed_replicated
Sync:        True
==========
Generating model
Running warm up
Done warm up
Step	Img/sec	loss
Starting real work at step 320 at time Fri Oct  6 17:59:38 2017
1	on average processed 32 images in 0.517896 seconds	7.940
2	on average processed 32 images in 0.517791 seconds	8.018
3	on average processed 32 images in 0.514449 seconds	8.009
4	on average processed 32 images in 0.511085 seconds	7.951
5	on average processed 32 images in 0.508743 seconds	7.924
6	on average processed 32 images in 0.510129 seconds	7.872
7	on average processed 32 images in 0.507791 seconds	8.019
8	on average processed 32 images in 0.508370 seconds	7.901
9	on average processed 32 images in 0.510787 seconds	7.792
10	on average processed 32 images in 0.511897 seconds	8.029
11	on average processed 32 images in 0.514359 seconds	7.725
12	on average processed 32 images in 0.513284 seconds	7.727
13	on average processed 32 images in 0.512941 seconds	8.131
14	on average processed 32 images in 0.512696 seconds	7.862
15	on average processed 32 images in 0.514675 seconds	8.027
16	on average processed 32 images in 0.515913 seconds	7.973
17	on average processed 32 images in 0.516591 seconds	7.963
18	on average processed 32 images in 0.516851 seconds	7.905
19	on average processed 32 images in 0.517551 seconds	8.159
20	on average processed 32 images in 0.516883 seconds	7.823
21	on average processed 32 images in 0.517080 seconds	7.932
22	on average processed 32 images in 0.517693 seconds	7.788
23	on average processed 32 images in 0.517717 seconds	7.869
24	on average processed 32 images in 0.517811 seconds	7.907
25	on average processed 32 images in 0.517723 seconds	7.904
26	on average processed 32 images in 0.517796 seconds	7.888
27	on average processed 32 images in 0.518332 seconds	7.928
28	on average processed 32 images in 0.518089 seconds	8.028
29	on average processed 32 images in 0.517828 seconds	7.789
30	on average processed 32 images in 0.518254 seconds	7.940
31	on average processed 32 images in 0.518167 seconds	7.835
32	on average processed 32 images in 0.517862 seconds	7.716
33	on average processed 32 images in 0.517215 seconds	7.986
34	on average processed 32 images in 0.517841 seconds	8.048
35	on average processed 32 images in 0.518009 seconds	7.798
36	on average processed 32 images in 0.518693 seconds	7.961
37	on average processed 32 images in 0.519114 seconds	7.737
38	on average processed 32 images in 0.519109 seconds	7.675
39	on average processed 32 images in 0.519045 seconds	7.722
40	on average processed 32 images in 0.518371 seconds	7.843
41	on average processed 32 images in 0.518804 seconds	7.832
42	on average processed 32 images in 0.518252 seconds	7.788
43	on average processed 32 images in 0.518682 seconds	7.661
44	on average processed 32 images in 0.518447 seconds	7.802
45	on average processed 32 images in 0.518842 seconds	8.025
46	on average processed 32 images in 0.518822 seconds	7.697
47	on average processed 32 images in 0.518544 seconds	7.930
48	on average processed 32 images in 0.518573 seconds	7.871
49	on average processed 32 images in 0.519088 seconds	7.929
50	on average processed 32 images in 0.519463 seconds	7.968
51	on average processed 32 images in 0.519060 seconds	7.864
52	on average processed 32 images in 0.518590 seconds	7.711
53	on average processed 32 images in 0.519148 seconds	7.810
54	on average processed 32 images in 0.519340 seconds	7.934
55	on average processed 32 images in 0.519200 seconds	7.943
56	on average processed 32 images in 0.519397 seconds	7.889
57	on average processed 32 images in 0.519308 seconds	7.912
58	on average processed 32 images in 0.519398 seconds	7.746
59	on average processed 32 images in 0.519590 seconds	7.860
60	on average processed 32 images in 0.519718 seconds	7.831
61	on average processed 32 images in 0.519421 seconds	7.602
62	on average processed 32 images in 0.519215 seconds	7.803
63	on average processed 32 images in 0.519075 seconds	7.701
64	on average processed 32 images in 0.518940 seconds	7.698
65	on average processed 32 images in 0.518975 seconds	7.664
66	on average processed 32 images in 0.518798 seconds	7.909
67	on average processed 32 images in 0.518858 seconds	7.712
68	on average processed 32 images in 0.519318 seconds	7.887
69	on average processed 32 images in 0.519567 seconds	7.939
70	on average processed 32 images in 0.519484 seconds	7.607
71	on average processed 32 images in 0.519493 seconds	7.940
72	on average processed 32 images in 0.519353 seconds	7.848
73	on average processed 32 images in 0.519079 seconds	8.056
74	on average processed 32 images in 0.519271 seconds	7.544
75	on average processed 32 images in 0.519124 seconds	7.928
76	on average processed 32 images in 0.519180 seconds	7.785
77	on average processed 32 images in 0.519121 seconds	7.788
78	on average processed 32 images in 0.519167 seconds	8.016
79	on average processed 32 images in 0.519418 seconds	7.897
80	on average processed 32 images in 0.519434 seconds	7.638
81	on average processed 32 images in 0.519364 seconds	7.598
82	on average processed 32 images in 0.519347 seconds	7.930
83	on average processed 32 images in 0.519276 seconds	7.647
84	on average processed 32 images in 0.519133 seconds	7.652
85	on average processed 32 images in 0.518841 seconds	8.051
86	on average processed 32 images in 0.519200 seconds	7.709
87	on average processed 32 images in 0.518928 seconds	7.760
88	on average processed 32 images in 0.518750 seconds	7.512
89	on average processed 32 images in 0.518934 seconds	7.829
90	on average processed 32 images in 0.518980 seconds	7.475
91	on average processed 32 images in 0.519016 seconds	7.895
92	on average processed 32 images in 0.519188 seconds	7.715
93	on average processed 32 images in 0.519369 seconds	7.375
94	on average processed 32 images in 0.519241 seconds	7.673
95	on average processed 32 images in 0.519146 seconds	7.764
96	on average processed 32 images in 0.519165 seconds	7.975
97	on average processed 32 images in 0.519176 seconds	7.517
98	on average processed 32 images in 0.519273 seconds	7.676
99	on average processed 32 images in 0.519450 seconds	7.729
100	on average processed 32 images in 0.519464 seconds	7.647
Finishing real work at step 3519 at time Fri Oct  6 18:00:30 2017
----------------------------------------------------------------
total images/sec: 1964.35
----------------------------------------------------------------
