2017-10-11 22:18:04.151428: I tensorflow/core/common_runtime/gpu/gpu_device.cc:940] Found device 0 with properties: 
name: Tesla P100-PCIE-16GB
major: 6 minor: 0 memoryClockRate (GHz) 1.3285
pciBusID 0000:02:00.0
Total memory: 15.89GiB
Free memory: 15.61GiB
2017-10-11 22:18:04.151951: I tensorflow/core/common_runtime/gpu/gpu_device.cc:961] DMA: 0 
2017-10-11 22:18:04.151968: I tensorflow/core/common_runtime/gpu/gpu_device.cc:971] 0:   Y 
2017-10-11 22:18:04.151987: I tensorflow/core/common_runtime/gpu/gpu_device.cc:1030] Creating TensorFlow device (/gpu:0) -> (device: 0, name: Tesla P100-PCIE-16GB, pci bus id: 0000:02:00.0)
2017-10-11 22:18:04.344913: I tensorflow/core/distributed_runtime/rpc/grpc_channel.cc:215] Initialize GrpcChannelCache for job ps -> {0 -> nid02813:2230, 1 -> nid02814:2230, 2 -> nid02815:2230, 3 -> nid02816:2230, 4 -> nid02817:2230, 5 -> nid02818:2230, 6 -> nid02819:2230, 7 -> nid02820:2230}
2017-10-11 22:18:04.344953: I tensorflow/core/distributed_runtime/rpc/grpc_channel.cc:215] Initialize GrpcChannelCache for job worker -> {0 -> nid02813:2220, 1 -> nid02814:2220, 2 -> localhost:2220, 3 -> nid02816:2220, 4 -> nid02817:2220, 5 -> nid02818:2220, 6 -> nid02819:2220, 7 -> nid02820:2220}
2017-10-11 22:18:04.345669: I tensorflow/core/distributed_runtime/rpc/grpc_server_lib.cc:316] Started server with target: grpc://localhost:2220
2017-10-11 22:18:28.704786: I tensorflow/core/distributed_runtime/master_session.cc:999] Start master session 109af21f82d59956 with config: 
intra_op_parallelism_threads: 1
allow_soft_placement: true

TensorFlow:  1.2
Model:       inception3
Mode:        training
Batch size:  32 global
             32.0 per device
Devices:     ['/job:worker/task:2/gpu:0']
Data format: NCHW
Optimizer:   sgd
Variables:   parameter_server
Sync:        True
==========
Generating model
Running warm up
Done warm up
Step	Img/sec	loss
Starting real work at step 80 at time Wed Oct 11 22:19:11 2017
1	on average processed 32 images in 0.367421 seconds	7.426
2	on average processed 32 images in 0.370708 seconds	7.497
3	on average processed 32 images in 0.378009 seconds	7.321
4	on average processed 32 images in 0.376530 seconds	7.479
5	on average processed 32 images in 0.374197 seconds	7.511
6	on average processed 32 images in 0.373934 seconds	7.405
7	on average processed 32 images in 0.370347 seconds	7.436
8	on average processed 32 images in 0.370045 seconds	7.414
9	on average processed 32 images in 0.369254 seconds	7.347
10	on average processed 32 images in 0.368459 seconds	7.530
11	on average processed 32 images in 0.368772 seconds	7.374
12	on average processed 32 images in 0.369120 seconds	7.403
13	on average processed 32 images in 0.369468 seconds	7.358
14	on average processed 32 images in 0.369539 seconds	7.500
15	on average processed 32 images in 0.369893 seconds	7.373
16	on average processed 32 images in 0.370331 seconds	7.340
17	on average processed 32 images in 0.370510 seconds	7.423
18	on average processed 32 images in 0.371063 seconds	7.484
19	on average processed 32 images in 0.371215 seconds	7.416
20	on average processed 32 images in 0.371730 seconds	7.447
21	on average processed 32 images in 0.371316 seconds	7.422
22	on average processed 32 images in 0.371307 seconds	7.332
23	on average processed 32 images in 0.371401 seconds	7.347
24	on average processed 32 images in 0.371697 seconds	7.387
25	on average processed 32 images in 0.371651 seconds	7.325
26	on average processed 32 images in 0.371378 seconds	7.315
27	on average processed 32 images in 0.370952 seconds	7.397
28	on average processed 32 images in 0.370996 seconds	7.292
29	on average processed 32 images in 0.370779 seconds	7.321
30	on average processed 32 images in 0.370722 seconds	7.460
31	on average processed 32 images in 0.370445 seconds	7.378
32	on average processed 32 images in 0.370796 seconds	7.335
33	on average processed 32 images in 0.370828 seconds	7.457
34	on average processed 32 images in 0.370739 seconds	7.378
35	on average processed 32 images in 0.370901 seconds	7.403
36	on average processed 32 images in 0.370599 seconds	7.453
37	on average processed 32 images in 0.370474 seconds	7.286
38	on average processed 32 images in 0.370356 seconds	7.475
39	on average processed 32 images in 0.370443 seconds	7.327
40	on average processed 32 images in 0.370017 seconds	7.337
41	on average processed 32 images in 0.369994 seconds	7.463
42	on average processed 32 images in 0.370373 seconds	7.347
43	on average processed 32 images in 0.370735 seconds	7.386
44	on average processed 32 images in 0.370869 seconds	7.324
45	on average processed 32 images in 0.370954 seconds	7.467
46	on average processed 32 images in 0.370955 seconds	7.451
47	on average processed 32 images in 0.370724 seconds	7.291
48	on average processed 32 images in 0.370474 seconds	7.322
49	on average processed 32 images in 0.370311 seconds	7.392
50	on average processed 32 images in 0.370256 seconds	7.286
51	on average processed 32 images in 0.370542 seconds	7.481
52	on average processed 32 images in 0.370579 seconds	7.331
53	on average processed 32 images in 0.370473 seconds	7.399
54	on average processed 32 images in 0.370420 seconds	7.359
55	on average processed 32 images in 0.370280 seconds	7.350
56	on average processed 32 images in 0.370359 seconds	7.429
57	on average processed 32 images in 0.370459 seconds	7.401
58	on average processed 32 images in 0.370267 seconds	7.291
59	on average processed 32 images in 0.370522 seconds	7.340
60	on average processed 32 images in 0.370446 seconds	7.236
61	on average processed 32 images in 0.370457 seconds	7.369
62	on average processed 32 images in 0.370344 seconds	7.282
63	on average processed 32 images in 0.370345 seconds	7.412
64	on average processed 32 images in 0.370313 seconds	7.324
65	on average processed 32 images in 0.370330 seconds	7.304
66	on average processed 32 images in 0.370336 seconds	7.328
67	on average processed 32 images in 0.370256 seconds	7.283
68	on average processed 32 images in 0.370302 seconds	7.375
69	on average processed 32 images in 0.370274 seconds	7.392
70	on average processed 32 images in 0.370237 seconds	7.412
71	on average processed 32 images in 0.370347 seconds	7.319
72	on average processed 32 images in 0.370348 seconds	7.282
73	on average processed 32 images in 0.370274 seconds	7.415
74	on average processed 32 images in 0.370220 seconds	7.440
75	on average processed 32 images in 0.370216 seconds	7.381
76	on average processed 32 images in 0.370228 seconds	7.200
77	on average processed 32 images in 0.370162 seconds	7.283
78	on average processed 32 images in 0.369995 seconds	7.388
79	on average processed 32 images in 0.370110 seconds	7.362
80	on average processed 32 images in 0.370020 seconds	7.410
81	on average processed 32 images in 0.370011 seconds	7.276
82	on average processed 32 images in 0.370022 seconds	7.352
83	on average processed 32 images in 0.370101 seconds	7.325
84	on average processed 32 images in 0.370077 seconds	7.357
85	on average processed 32 images in 0.370071 seconds	7.292
86	on average processed 32 images in 0.370083 seconds	7.373
87	on average processed 32 images in 0.369972 seconds	7.424
88	on average processed 32 images in 0.369986 seconds	7.445
89	on average processed 32 images in 0.369964 seconds	7.341
90	on average processed 32 images in 0.369956 seconds	7.302
91	on average processed 32 images in 0.370078 seconds	7.385
92	on average processed 32 images in 0.370026 seconds	7.234
93	on average processed 32 images in 0.369986 seconds	7.296
94	on average processed 32 images in 0.369908 seconds	7.370
95	on average processed 32 images in 0.370018 seconds	7.294
96	on average processed 32 images in 0.369992 seconds	7.385
97	on average processed 32 images in 0.369955 seconds	7.358
98	on average processed 32 images in 0.370010 seconds	7.448
99	on average processed 32 images in 0.369986 seconds	7.457
100	on average processed 32 images in 0.370064 seconds	7.326
Finishing real work at step 880 at time Wed Oct 11 22:19:48 2017
----------------------------------------------------------------
total images/sec: 692.28
----------------------------------------------------------------
