2017-10-15 23:31:01.653742: I tensorflow/core/common_runtime/gpu/gpu_device.cc:940] Found device 0 with properties: 
name: Tesla P100-PCIE-16GB
major: 6 minor: 0 memoryClockRate (GHz) 1.3285
pciBusID 0000:02:00.0
Total memory: 15.89GiB
Free memory: 15.61GiB
2017-10-15 23:31:01.654185: I tensorflow/core/common_runtime/gpu/gpu_device.cc:961] DMA: 0 
2017-10-15 23:31:01.654211: I tensorflow/core/common_runtime/gpu/gpu_device.cc:971] 0:   Y 
2017-10-15 23:31:01.654232: I tensorflow/core/common_runtime/gpu/gpu_device.cc:1030] Creating TensorFlow device (/gpu:0) -> (device: 0, name: Tesla P100-PCIE-16GB, pci bus id: 0000:02:00.0)
2017-10-15 23:31:01.842360: I tensorflow/core/distributed_runtime/rpc/grpc_channel.cc:215] Initialize GrpcChannelCache for job ps -> {0 -> nid04595:2230, 1 -> nid04596:2230, 2 -> nid04597:2230, 3 -> nid04598:2230, 4 -> nid04599:2230, 5 -> nid04600:2230, 6 -> nid04601:2230, 7 -> nid04602:2230}
2017-10-15 23:31:01.842399: I tensorflow/core/distributed_runtime/rpc/grpc_channel.cc:215] Initialize GrpcChannelCache for job worker -> {0 -> nid04595:2220, 1 -> nid04596:2220, 2 -> localhost:2220, 3 -> nid04598:2220, 4 -> nid04599:2220, 5 -> nid04600:2220, 6 -> nid04601:2220, 7 -> nid04602:2220}
2017-10-15 23:31:01.843163: I tensorflow/core/distributed_runtime/rpc/grpc_server_lib.cc:316] Started server with target: grpc://localhost:2220
2017-10-15 23:31:33.608674: I tensorflow/core/distributed_runtime/master_session.cc:999] Start master session fd4380b8861c5cf5 with config: 
intra_op_parallelism_threads: 1
allow_soft_placement: true

2017-10-15 23:32:10.725427: I tensorflow/core/distributed_runtime/master_session.cc:999] Start master session 6dd6c3d4372d2ccc with config: 
intra_op_parallelism_threads: 1
allow_soft_placement: true

TensorFlow:  1.2
Model:       inception3
Mode:        training
Batch size:  32 global
             32.0 per device
Devices:     ['/job:worker/task:2/gpu:0']
Data format: NCHW
Optimizer:   sgd
Variables:   distributed_replicated
Sync:        True
==========
Generating model
Running warm up
Done warm up
Step	Img/sec	loss
Starting real work at step 80 at time Sun Oct 15 23:32:40 2017
1	on average processed 32 images in 0.382064 seconds	7.360
2	on average processed 32 images in 0.405684 seconds	7.351
3	on average processed 32 images in 0.412166 seconds	7.553
4	on average processed 32 images in 0.406719 seconds	7.407
5	on average processed 32 images in 0.405113 seconds	7.484
6	on average processed 32 images in 0.403347 seconds	7.511
7	on average processed 32 images in 0.405616 seconds	7.491
8	on average processed 32 images in 0.403330 seconds	7.411
9	on average processed 32 images in 0.403549 seconds	7.533
10	on average processed 32 images in 0.403655 seconds	7.380
11	on average processed 32 images in 0.406234 seconds	7.365
12	on average processed 32 images in 0.404392 seconds	7.395
13	on average processed 32 images in 0.405704 seconds	7.367
14	on average processed 32 images in 0.406402 seconds	7.367
15	on average processed 32 images in 0.405308 seconds	7.444
16	on average processed 32 images in 0.404359 seconds	7.499
17	on average processed 32 images in 0.403333 seconds	7.386
18	on average processed 32 images in 0.402595 seconds	7.509
19	on average processed 32 images in 0.402118 seconds	7.375
20	on average processed 32 images in 0.403256 seconds	7.374
21	on average processed 32 images in 0.403817 seconds	7.330
22	on average processed 32 images in 0.405335 seconds	7.394
23	on average processed 32 images in 0.405726 seconds	7.487
24	on average processed 32 images in 0.405621 seconds	7.446
25	on average processed 32 images in 0.405009 seconds	7.378
26	on average processed 32 images in 0.404735 seconds	7.321
27	on average processed 32 images in 0.403799 seconds	7.341
28	on average processed 32 images in 0.405133 seconds	7.308
29	on average processed 32 images in 0.404848 seconds	7.298
30	on average processed 32 images in 0.405280 seconds	7.435
31	on average processed 32 images in 0.404860 seconds	7.443
32	on average processed 32 images in 0.404607 seconds	7.262
33	on average processed 32 images in 0.404756 seconds	7.437
34	on average processed 32 images in 0.405176 seconds	7.388
35	on average processed 32 images in 0.406281 seconds	7.256
36	on average processed 32 images in 0.406227 seconds	7.314
37	on average processed 32 images in 0.405794 seconds	7.372
38	on average processed 32 images in 0.405653 seconds	7.361
39	on average processed 32 images in 0.405903 seconds	7.310
40	on average processed 32 images in 0.405726 seconds	7.431
41	on average processed 32 images in 0.405365 seconds	7.322
42	on average processed 32 images in 0.405188 seconds	7.267
43	on average processed 32 images in 0.405928 seconds	7.361
44	on average processed 32 images in 0.406132 seconds	7.235
45	on average processed 32 images in 0.406378 seconds	7.428
46	on average processed 32 images in 0.406222 seconds	7.310
47	on average processed 32 images in 0.405908 seconds	7.403
48	on average processed 32 images in 0.405562 seconds	7.363
49	on average processed 32 images in 0.405386 seconds	7.480
50	on average processed 32 images in 0.405025 seconds	7.349
51	on average processed 32 images in 0.405025 seconds	7.389
52	on average processed 32 images in 0.405200 seconds	7.273
53	on average processed 32 images in 0.405530 seconds	7.320
54	on average processed 32 images in 0.405819 seconds	7.288
55	on average processed 32 images in 0.405561 seconds	7.426
56	on average processed 32 images in 0.405735 seconds	7.273
57	on average processed 32 images in 0.405925 seconds	7.447
58	on average processed 32 images in 0.406118 seconds	7.302
59	on average processed 32 images in 0.406173 seconds	7.463
60	on average processed 32 images in 0.406027 seconds	7.354
61	on average processed 32 images in 0.405893 seconds	7.380
62	on average processed 32 images in 0.405564 seconds	7.369
63	on average processed 32 images in 0.405686 seconds	7.341
64	on average processed 32 images in 0.405714 seconds	7.347
65	on average processed 32 images in 0.405747 seconds	7.207
66	on average processed 32 images in 0.406054 seconds	7.407
67	on average processed 32 images in 0.406221 seconds	7.328
68	on average processed 32 images in 0.406351 seconds	7.250
69	on average processed 32 images in 0.406751 seconds	7.406
70	on average processed 32 images in 0.406955 seconds	7.424
71	on average processed 32 images in 0.406659 seconds	7.254
72	on average processed 32 images in 0.406329 seconds	7.293
73	on average processed 32 images in 0.406141 seconds	7.415
74	on average processed 32 images in 0.406101 seconds	7.350
75	on average processed 32 images in 0.406243 seconds	7.278
76	on average processed 32 images in 0.405994 seconds	7.361
77	on average processed 32 images in 0.405730 seconds	7.429
78	on average processed 32 images in 0.405614 seconds	7.331
79	on average processed 32 images in 0.405441 seconds	7.354
80	on average processed 32 images in 0.405666 seconds	7.303
81	on average processed 32 images in 0.405853 seconds	7.385
82	on average processed 32 images in 0.406207 seconds	7.378
83	on average processed 32 images in 0.406037 seconds	7.223
84	on average processed 32 images in 0.406241 seconds	7.296
85	on average processed 32 images in 0.406632 seconds	7.328
86	on average processed 32 images in 0.406441 seconds	7.420
87	on average processed 32 images in 0.406349 seconds	7.371
88	on average processed 32 images in 0.406512 seconds	7.349
89	on average processed 32 images in 0.406655 seconds	7.295
90	on average processed 32 images in 0.406493 seconds	7.325
91	on average processed 32 images in 0.406326 seconds	7.438
92	on average processed 32 images in 0.406206 seconds	7.316
93	on average processed 32 images in 0.405993 seconds	7.250
94	on average processed 32 images in 0.405994 seconds	7.261
95	on average processed 32 images in 0.405947 seconds	7.366
96	on average processed 32 images in 0.405945 seconds	7.230
97	on average processed 32 images in 0.405913 seconds	7.266
98	on average processed 32 images in 0.406035 seconds	7.253
99	on average processed 32 images in 0.406183 seconds	7.512
100	on average processed 32 images in 0.406047 seconds	7.236
Finishing real work at step 879 at time Sun Oct 15 23:33:21 2017
----------------------------------------------------------------
total images/sec: 630.23
----------------------------------------------------------------
