2017-11-22 11:01:51.837951: I tensorflow/core/common_runtime/gpu/gpu_device.cc:940] Found device 0 with properties: 
name: Tesla P100-PCIE-16GB
major: 6 minor: 0 memoryClockRate (GHz) 1.3285
pciBusID 0000:02:00.0
Total memory: 15.89GiB
Free memory: 15.61GiB
2017-11-22 11:01:51.838671: I tensorflow/core/common_runtime/gpu/gpu_device.cc:961] DMA: 0 
2017-11-22 11:01:51.838690: I tensorflow/core/common_runtime/gpu/gpu_device.cc:971] 0:   Y 
2017-11-22 11:01:51.839020: I tensorflow/core/common_runtime/gpu/gpu_device.cc:1030] Creating TensorFlow device (/gpu:0) -> (device: 0, name: Tesla P100-PCIE-16GB, pci bus id: 0000:02:00.0)
2017-11-22 11:01:51.999283: I tensorflow/core/distributed_runtime/rpc/grpc_channel.cc:215] Initialize GrpcChannelCache for job ps -> {0 -> nid02388:2230, 1 -> nid02389:2230, 2 -> nid02390:2230, 3 -> nid02391:2230, 4 -> nid02392:2230, 5 -> nid02393:2230, 6 -> nid02394:2230, 7 -> nid02395:2230, 8 -> nid02396:2230, 9 -> nid02397:2230, 10 -> nid02398:2230, 11 -> nid02399:2230}
2017-11-22 11:01:51.999354: I tensorflow/core/distributed_runtime/rpc/grpc_channel.cc:215] Initialize GrpcChannelCache for job worker -> {0 -> nid02388:2220, 1 -> nid02389:2220, 2 -> nid02390:2220, 3 -> nid02391:2220, 4 -> nid02392:2220, 5 -> nid02393:2220, 6 -> nid02394:2220, 7 -> nid02395:2220, 8 -> nid02396:2220, 9 -> nid02397:2220, 10 -> nid02398:2220, 11 -> nid02399:2220, 12 -> nid02400:2220, 13 -> nid02401:2220, 14 -> nid02402:2220, 15 -> localhost:2220}
2017-11-22 11:01:52.001769: I tensorflow/core/distributed_runtime/rpc/grpc_server_lib.cc:316] Started server with target: grpc://localhost:2220
2017-11-22 11:02:10.353877: I tensorflow/core/distributed_runtime/master_session.cc:999] Start master session 3c9a6fd1b3159e77 with config: 
intra_op_parallelism_threads: 1
allow_soft_placement: true

2017-11-22 11:02:44.940801: I tensorflow/core/distributed_runtime/master_session.cc:999] Start master session d5d7d2395be7f983 with config: 
intra_op_parallelism_threads: 1
allow_soft_placement: true

