2017-10-15 23:31:14.681236: I tensorflow/core/common_runtime/gpu/gpu_device.cc:940] Found device 0 with properties: 
name: Tesla P100-PCIE-16GB
major: 6 minor: 0 memoryClockRate (GHz) 1.3285
pciBusID 0000:02:00.0
Total memory: 15.89GiB
Free memory: 15.61GiB
2017-10-15 23:31:14.681800: I tensorflow/core/common_runtime/gpu/gpu_device.cc:961] DMA: 0 
2017-10-15 23:31:14.681817: I tensorflow/core/common_runtime/gpu/gpu_device.cc:971] 0:   Y 
2017-10-15 23:31:14.681836: I tensorflow/core/common_runtime/gpu/gpu_device.cc:1030] Creating TensorFlow device (/gpu:0) -> (device: 0, name: Tesla P100-PCIE-16GB, pci bus id: 0000:02:00.0)
2017-10-15 23:31:14.876089: I tensorflow/core/distributed_runtime/rpc/grpc_channel.cc:215] Initialize GrpcChannelCache for job ps -> {0 -> nid06851:2230, 1 -> nid06852:2230, 2 -> nid06853:2230, 3 -> nid06854:2230, 4 -> nid06855:2230, 5 -> nid06856:2230, 6 -> nid06857:2230, 7 -> nid06858:2230, 8 -> nid06859:2230, 9 -> nid06860:2230, 10 -> nid06861:2230, 11 -> nid06862:2230, 12 -> nid06863:2230, 13 -> nid06864:2230, 14 -> nid06865:2230, 15 -> nid06866:2230, 16 -> nid06867:2230, 17 -> nid06868:2230, 18 -> nid06869:2230, 19 -> nid06870:2230, 20 -> nid06871:2230, 21 -> nid06872:2230, 22 -> nid06873:2230, 23 -> nid06874:2230, 24 -> nid06875:2230, 25 -> nid06876:2230, 26 -> nid06877:2230, 27 -> nid06878:2230, 28 -> nid06879:2230, 29 -> nid06880:2230, 30 -> nid06881:2230, 31 -> nid06882:2230}
2017-10-15 23:31:14.876134: I tensorflow/core/distributed_runtime/rpc/grpc_channel.cc:215] Initialize GrpcChannelCache for job worker -> {0 -> nid06851:2220, 1 -> nid06852:2220, 2 -> nid06853:2220, 3 -> nid06854:2220, 4 -> nid06855:2220, 5 -> nid06856:2220, 6 -> nid06857:2220, 7 -> nid06858:2220, 8 -> nid06859:2220, 9 -> nid06860:2220, 10 -> nid06861:2220, 11 -> nid06862:2220, 12 -> nid06863:2220, 13 -> nid06864:2220, 14 -> nid06865:2220, 15 -> nid06866:2220, 16 -> nid06867:2220, 17 -> nid06868:2220, 18 -> nid06869:2220, 19 -> nid06870:2220, 20 -> nid06871:2220, 21 -> nid06872:2220, 22 -> nid06873:2220, 23 -> nid06874:2220, 24 -> nid06875:2220, 25 -> nid06876:2220, 26 -> localhost:2220, 27 -> nid06878:2220, 28 -> nid06879:2220, 29 -> nid06880:2220, 30 -> nid06881:2220, 31 -> nid06882:2220}
2017-10-15 23:31:14.876837: I tensorflow/core/distributed_runtime/rpc/grpc_server_lib.cc:316] Started server with target: grpc://localhost:2220
2017-10-15 23:32:04.504713: I tensorflow/core/distributed_runtime/master_session.cc:999] Start master session ee3174459dcdecf1 with config: 
intra_op_parallelism_threads: 1
allow_soft_placement: true

TensorFlow:  1.2
Model:       inception3
Mode:        training
Batch size:  32 global
             32.0 per device
Devices:     ['/job:worker/task:26/gpu:0']
Data format: NCHW
Optimizer:   sgd
Variables:   distributed_replicated
Sync:        True
==========
Generating model
Running warm up
Done warm up
Step	Img/sec	loss
Starting real work at step 320 at time Sun Oct 15 23:32:38 2017
1	on average processed 32 images in 0.566990 seconds	7.373
2	on average processed 32 images in 0.591037 seconds	7.395
3	on average processed 32 images in 0.581733 seconds	7.478
4	on average processed 32 images in 0.585904 seconds	7.523
5	on average processed 32 images in 0.587240 seconds	7.298
6	on average processed 32 images in 0.587835 seconds	7.349
7	on average processed 32 images in 0.589961 seconds	7.373
8	on average processed 32 images in 0.590049 seconds	7.354
9	on average processed 32 images in 0.590175 seconds	7.382
10	on average processed 32 images in 0.588236 seconds	7.433
11	on average processed 32 images in 0.588902 seconds	7.369
12	on average processed 32 images in 0.584804 seconds	7.432
13	on average processed 32 images in 0.583322 seconds	7.387
14	on average processed 32 images in 0.584280 seconds	7.205
15	on average processed 32 images in 0.585763 seconds	7.286
16	on average processed 32 images in 0.587181 seconds	7.286
17	on average processed 32 images in 0.587933 seconds	7.369
18	on average processed 32 images in 0.585804 seconds	7.455
19	on average processed 32 images in 0.586211 seconds	7.282
20	on average processed 32 images in 0.584910 seconds	7.282
21	on average processed 32 images in 0.584834 seconds	7.315
22	on average processed 32 images in 0.585974 seconds	7.378
23	on average processed 32 images in 0.585227 seconds	7.323
24	on average processed 32 images in 0.587041 seconds	7.392
25	on average processed 32 images in 0.585706 seconds	7.413
26	on average processed 32 images in 0.586138 seconds	7.289
27	on average processed 32 images in 0.584041 seconds	7.251
28	on average processed 32 images in 0.584494 seconds	7.263
29	on average processed 32 images in 0.585364 seconds	7.377
30	on average processed 32 images in 0.586673 seconds	7.326
31	on average processed 32 images in 0.586107 seconds	7.300
32	on average processed 32 images in 0.586980 seconds	7.456
33	on average processed 32 images in 0.587314 seconds	7.290
34	on average processed 32 images in 0.587815 seconds	7.388
35	on average processed 32 images in 0.587582 seconds	7.295
36	on average processed 32 images in 0.588268 seconds	7.241
37	on average processed 32 images in 0.587637 seconds	7.232
38	on average processed 32 images in 0.587784 seconds	7.321
39	on average processed 32 images in 0.588024 seconds	7.345
40	on average processed 32 images in 0.587794 seconds	7.284
41	on average processed 32 images in 0.587224 seconds	7.412
42	on average processed 32 images in 0.586523 seconds	7.252
43	on average processed 32 images in 0.586936 seconds	7.300
44	on average processed 32 images in 0.586430 seconds	7.363
45	on average processed 32 images in 0.585870 seconds	7.375
46	on average processed 32 images in 0.586057 seconds	7.294
47	on average processed 32 images in 0.586481 seconds	7.403
48	on average processed 32 images in 0.586585 seconds	7.271
49	on average processed 32 images in 0.587083 seconds	7.247
50	on average processed 32 images in 0.586535 seconds	7.308
51	on average processed 32 images in 0.586401 seconds	7.286
52	on average processed 32 images in 0.586985 seconds	7.233
53	on average processed 32 images in 0.587325 seconds	7.308
54	on average processed 32 images in 0.587771 seconds	7.380
55	on average processed 32 images in 0.588108 seconds	7.306
56	on average processed 32 images in 0.588229 seconds	7.304
57	on average processed 32 images in 0.588316 seconds	7.323
58	on average processed 32 images in 0.588179 seconds	7.348
59	on average processed 32 images in 0.588160 seconds	7.264
60	on average processed 32 images in 0.587495 seconds	7.261
61	on average processed 32 images in 0.587585 seconds	7.274
62	on average processed 32 images in 0.587859 seconds	7.348
63	on average processed 32 images in 0.588209 seconds	7.293
64	on average processed 32 images in 0.588629 seconds	7.321
65	on average processed 32 images in 0.588778 seconds	7.227
66	on average processed 32 images in 0.588729 seconds	7.260
67	on average processed 32 images in 0.588467 seconds	7.276
68	on average processed 32 images in 0.588425 seconds	7.274
69	on average processed 32 images in 0.588508 seconds	7.104
70	on average processed 32 images in 0.588572 seconds	7.283
71	on average processed 32 images in 0.588778 seconds	7.251
72	on average processed 32 images in 0.588914 seconds	7.447
73	on average processed 32 images in 0.589158 seconds	7.280
74	on average processed 32 images in 0.589110 seconds	7.267
75	on average processed 32 images in 0.589444 seconds	7.171
76	on average processed 32 images in 0.589654 seconds	7.434
77	on average processed 32 images in 0.588967 seconds	7.253
78	on average processed 32 images in 0.589260 seconds	7.386
79	on average processed 32 images in 0.589425 seconds	7.177
80	on average processed 32 images in 0.589557 seconds	7.343
81	on average processed 32 images in 0.589324 seconds	7.179
82	on average processed 32 images in 0.588822 seconds	7.262
83	on average processed 32 images in 0.588676 seconds	7.137
84	on average processed 32 images in 0.588350 seconds	7.313
85	on average processed 32 images in 0.588566 seconds	7.300
86	on average processed 32 images in 0.588265 seconds	7.192
87	on average processed 32 images in 0.588419 seconds	7.277
88	on average processed 32 images in 0.588540 seconds	7.126
89	on average processed 32 images in 0.588593 seconds	7.275
90	on average processed 32 images in 0.588762 seconds	7.221
91	on average processed 32 images in 0.588792 seconds	7.280
92	on average processed 32 images in 0.588597 seconds	7.203
93	on average processed 32 images in 0.588556 seconds	7.228
94	on average processed 32 images in 0.588916 seconds	7.285
95	on average processed 32 images in 0.588983 seconds	7.237
96	on average processed 32 images in 0.589101 seconds	7.270
97	on average processed 32 images in 0.589154 seconds	7.248
98	on average processed 32 images in 0.589186 seconds	7.137
99	on average processed 32 images in 0.589458 seconds	7.270
100	on average processed 32 images in 0.589281 seconds	7.181
Finishing real work at step 3519 at time Sun Oct 15 23:33:37 2017
----------------------------------------------------------------
total images/sec: 1737.38
----------------------------------------------------------------
