2017-10-09 00:46:26.592146: I tensorflow/core/common_runtime/gpu/gpu_device.cc:940] Found device 0 with properties: 
name: Tesla P100-PCIE-16GB
major: 6 minor: 0 memoryClockRate (GHz) 1.3285
pciBusID 0000:02:00.0
Total memory: 15.89GiB
Free memory: 15.61GiB
2017-10-09 00:46:26.592595: I tensorflow/core/common_runtime/gpu/gpu_device.cc:961] DMA: 0 
2017-10-09 00:46:26.592611: I tensorflow/core/common_runtime/gpu/gpu_device.cc:971] 0:   Y 
2017-10-09 00:46:26.596884: I tensorflow/core/common_runtime/gpu/gpu_device.cc:1030] Creating TensorFlow device (/gpu:0) -> (device: 0, name: Tesla P100-PCIE-16GB, pci bus id: 0000:02:00.0)
2017-10-09 00:46:26.810915: I tensorflow/core/distributed_runtime/rpc/grpc_channel.cc:215] Initialize GrpcChannelCache for job ps -> {0 -> nid03119:2230, 1 -> nid03124:2230, 2 -> nid03125:2230, 3 -> nid03126:2230, 4 -> nid03127:2230, 5 -> nid03128:2230, 6 -> nid03129:2230, 7 -> nid03130:2230, 8 -> nid03131:2230, 9 -> nid03132:2230, 10 -> nid03133:2230, 11 -> nid03134:2230, 12 -> nid03135:2230, 13 -> nid03136:2230, 14 -> nid03137:2230, 15 -> nid03138:2230, 16 -> nid03139:2230, 17 -> nid03140:2230, 18 -> nid03141:2230, 19 -> nid03142:2230, 20 -> nid03143:2230, 21 -> nid03144:2230, 22 -> nid03145:2230, 23 -> nid03146:2230, 24 -> nid03147:2230, 25 -> nid03148:2230, 26 -> nid03149:2230, 27 -> nid03150:2230, 28 -> nid03151:2230, 29 -> nid03152:2230, 30 -> nid03153:2230, 31 -> nid03154:2230}
2017-10-09 00:46:26.810958: I tensorflow/core/distributed_runtime/rpc/grpc_channel.cc:215] Initialize GrpcChannelCache for job worker -> {0 -> nid03119:2220, 1 -> nid03124:2220, 2 -> nid03125:2220, 3 -> nid03126:2220, 4 -> nid03127:2220, 5 -> nid03128:2220, 6 -> nid03129:2220, 7 -> nid03130:2220, 8 -> nid03131:2220, 9 -> nid03132:2220, 10 -> nid03133:2220, 11 -> nid03134:2220, 12 -> nid03135:2220, 13 -> nid03136:2220, 14 -> nid03137:2220, 15 -> nid03138:2220, 16 -> nid03139:2220, 17 -> nid03140:2220, 18 -> nid03141:2220, 19 -> nid03142:2220, 20 -> nid03143:2220, 21 -> nid03144:2220, 22 -> nid03145:2220, 23 -> nid03146:2220, 24 -> nid03147:2220, 25 -> nid03148:2220, 26 -> nid03149:2220, 27 -> nid03150:2220, 28 -> nid03151:2220, 29 -> nid03152:2220, 30 -> localhost:2220, 31 -> nid03154:2220}
2017-10-09 00:46:26.811683: I tensorflow/core/distributed_runtime/rpc/grpc_server_lib.cc:316] Started server with target: grpc://localhost:2220
2017-10-09 00:47:15.745887: I tensorflow/core/distributed_runtime/master_session.cc:999] Start master session dac5bc56d1b36617 with config: 
intra_op_parallelism_threads: 1
allow_soft_placement: true

TensorFlow:  1.2
Model:       inception3
Mode:        training
Batch size:  32 global
             32.0 per device
Devices:     ['/job:worker/task:30/gpu:0']
Data format: NCHW
Optimizer:   sgd
Variables:   distributed_replicated
Sync:        True
==========
Generating model
Running warm up
Done warm up
Step	Img/sec	loss
Starting real work at step 320 at time Mon Oct  9 00:48:08 2017
1	on average processed 32 images in 0.560952 seconds	7.344
2	on average processed 32 images in 0.576184 seconds	7.337
3	on average processed 32 images in 0.585513 seconds	7.346
4	on average processed 32 images in 0.588481 seconds	7.253
5	on average processed 32 images in 0.581709 seconds	7.314
6	on average processed 32 images in 0.581439 seconds	7.485
7	on average processed 32 images in 0.580072 seconds	7.356
8	on average processed 32 images in 0.580255 seconds	7.281
9	on average processed 32 images in 0.581998 seconds	7.430
10	on average processed 32 images in 0.585518 seconds	7.357
11	on average processed 32 images in 0.582242 seconds	7.384
12	on average processed 32 images in 0.583829 seconds	7.395
13	on average processed 32 images in 0.583274 seconds	7.432
14	on average processed 32 images in 0.584548 seconds	7.317
15	on average processed 32 images in 0.582657 seconds	7.413
16	on average processed 32 images in 0.583509 seconds	7.441
17	on average processed 32 images in 0.584371 seconds	7.247
18	on average processed 32 images in 0.587068 seconds	7.333
19	on average processed 32 images in 0.587947 seconds	7.371
20	on average processed 32 images in 0.588584 seconds	7.290
21	on average processed 32 images in 0.587581 seconds	7.347
22	on average processed 32 images in 0.588614 seconds	7.318
23	on average processed 32 images in 0.588279 seconds	7.423
24	on average processed 32 images in 0.587257 seconds	7.279
25	on average processed 32 images in 0.588987 seconds	7.413
26	on average processed 32 images in 0.590342 seconds	7.290
27	on average processed 32 images in 0.591220 seconds	7.346
28	on average processed 32 images in 0.590406 seconds	7.312
29	on average processed 32 images in 0.590947 seconds	7.399
30	on average processed 32 images in 0.590821 seconds	7.275
31	on average processed 32 images in 0.591358 seconds	7.359
32	on average processed 32 images in 0.591698 seconds	7.317
33	on average processed 32 images in 0.591742 seconds	7.493
34	on average processed 32 images in 0.590803 seconds	7.406
35	on average processed 32 images in 0.590373 seconds	7.253
36	on average processed 32 images in 0.589856 seconds	7.267
37	on average processed 32 images in 0.590057 seconds	7.244
38	on average processed 32 images in 0.589077 seconds	7.375
39	on average processed 32 images in 0.589336 seconds	7.319
40	on average processed 32 images in 0.589661 seconds	7.375
41	on average processed 32 images in 0.589511 seconds	7.272
42	on average processed 32 images in 0.590213 seconds	7.289
43	on average processed 32 images in 0.589565 seconds	7.285
44	on average processed 32 images in 0.589856 seconds	7.280
45	on average processed 32 images in 0.590146 seconds	7.285
46	on average processed 32 images in 0.590615 seconds	7.287
47	on average processed 32 images in 0.590237 seconds	7.257
48	on average processed 32 images in 0.590176 seconds	7.433
49	on average processed 32 images in 0.589654 seconds	7.337
50	on average processed 32 images in 0.589154 seconds	7.261
51	on average processed 32 images in 0.589714 seconds	7.259
52	on average processed 32 images in 0.589927 seconds	7.194
53	on average processed 32 images in 0.589250 seconds	7.347
54	on average processed 32 images in 0.589548 seconds	7.196
55	on average processed 32 images in 0.589225 seconds	7.336
56	on average processed 32 images in 0.589087 seconds	7.405
57	on average processed 32 images in 0.589309 seconds	7.251
58	on average processed 32 images in 0.589382 seconds	7.183
59	on average processed 32 images in 0.589355 seconds	7.333
60	on average processed 32 images in 0.589340 seconds	7.221
61	on average processed 32 images in 0.589485 seconds	7.310
62	on average processed 32 images in 0.589234 seconds	7.276
63	on average processed 32 images in 0.589721 seconds	7.285
64	on average processed 32 images in 0.589091 seconds	7.202
65	on average processed 32 images in 0.588718 seconds	7.172
66	on average processed 32 images in 0.588934 seconds	7.206
67	on average processed 32 images in 0.588985 seconds	7.237
68	on average processed 32 images in 0.588752 seconds	7.231
69	on average processed 32 images in 0.588672 seconds	7.260
70	on average processed 32 images in 0.588361 seconds	7.130
71	on average processed 32 images in 0.588470 seconds	7.256
72	on average processed 32 images in 0.588805 seconds	7.277
73	on average processed 32 images in 0.588972 seconds	7.263
74	on average processed 32 images in 0.589140 seconds	7.155
75	on average processed 32 images in 0.589345 seconds	7.319
76	on average processed 32 images in 0.589594 seconds	7.278
77	on average processed 32 images in 0.589315 seconds	7.255
78	on average processed 32 images in 0.589392 seconds	7.084
79	on average processed 32 images in 0.589440 seconds	7.392
80	on average processed 32 images in 0.589598 seconds	7.159
81	on average processed 32 images in 0.589890 seconds	7.258
82	on average processed 32 images in 0.589496 seconds	7.197
83	on average processed 32 images in 0.589718 seconds	7.380
84	on average processed 32 images in 0.589776 seconds	7.239
85	on average processed 32 images in 0.590091 seconds	7.190
86	on average processed 32 images in 0.590207 seconds	7.216
87	on average processed 32 images in 0.590171 seconds	7.222
88	on average processed 32 images in 0.590180 seconds	7.316
89	on average processed 32 images in 0.590329 seconds	7.428
90	on average processed 32 images in 0.590225 seconds	7.124
91	on average processed 32 images in 0.590270 seconds	7.215
92	on average processed 32 images in 0.590181 seconds	7.132
93	on average processed 32 images in 0.590277 seconds	7.208
94	on average processed 32 images in 0.590017 seconds	7.181
95	on average processed 32 images in 0.589749 seconds	7.119
96	on average processed 32 images in 0.589398 seconds	7.162
97	on average processed 32 images in 0.589133 seconds	7.315
98	on average processed 32 images in 0.589315 seconds	7.311
99	on average processed 32 images in 0.589111 seconds	7.202
100	on average processed 32 images in 0.589402 seconds	7.235
Finishing real work at step 3519 at time Mon Oct  9 00:49:07 2017
----------------------------------------------------------------
total images/sec: 1730.59
----------------------------------------------------------------
