2017-10-10 19:42:05.259426: I tensorflow/core/common_runtime/gpu/gpu_device.cc:940] Found device 0 with properties: 
name: Tesla P100-PCIE-16GB
major: 6 minor: 0 memoryClockRate (GHz) 1.3285
pciBusID 0000:02:00.0
Total memory: 15.89GiB
Free memory: 15.61GiB
2017-10-10 19:42:05.260010: I tensorflow/core/common_runtime/gpu/gpu_device.cc:961] DMA: 0 
2017-10-10 19:42:05.260057: I tensorflow/core/common_runtime/gpu/gpu_device.cc:971] 0:   Y 
2017-10-10 19:42:05.260076: I tensorflow/core/common_runtime/gpu/gpu_device.cc:1030] Creating TensorFlow device (/gpu:0) -> (device: 0, name: Tesla P100-PCIE-16GB, pci bus id: 0000:02:00.0)
2017-10-10 19:42:05.459363: I tensorflow/core/distributed_runtime/rpc/grpc_channel.cc:215] Initialize GrpcChannelCache for job ps -> {0 -> nid03049:2230, 1 -> nid03050:2230, 2 -> nid03051:2230, 3 -> nid03052:2230, 4 -> nid03053:2230, 5 -> nid03054:2230, 6 -> nid03055:2230, 7 -> nid03056:2230, 8 -> nid03117:2230, 9 -> nid03118:2230, 10 -> nid03119:2230, 11 -> nid03124:2230, 12 -> nid03125:2230, 13 -> nid03126:2230, 14 -> nid03127:2230, 15 -> nid03128:2230}
2017-10-10 19:42:05.459404: I tensorflow/core/distributed_runtime/rpc/grpc_channel.cc:215] Initialize GrpcChannelCache for job worker -> {0 -> nid03049:2220, 1 -> nid03050:2220, 2 -> nid03051:2220, 3 -> nid03052:2220, 4 -> nid03053:2220, 5 -> nid03054:2220, 6 -> nid03055:2220, 7 -> localhost:2220, 8 -> nid03117:2220, 9 -> nid03118:2220, 10 -> nid03119:2220, 11 -> nid03124:2220, 12 -> nid03125:2220, 13 -> nid03126:2220, 14 -> nid03127:2220, 15 -> nid03128:2220}
2017-10-10 19:42:05.460137: I tensorflow/core/distributed_runtime/rpc/grpc_server_lib.cc:316] Started server with target: grpc://localhost:2220
2017-10-10 19:42:40.979899: I tensorflow/core/distributed_runtime/master_session.cc:999] Start master session 75381a91f1fb72eb with config: 
intra_op_parallelism_threads: 1
allow_soft_placement: true

2017-10-10 19:43:18.543278: I tensorflow/core/distributed_runtime/master_session.cc:999] Start master session 8612b8e3fa422afc with config: 
intra_op_parallelism_threads: 1
allow_soft_placement: true

TensorFlow:  1.2
Model:       resnet152
Mode:        training
Batch size:  32 global
             32.0 per device
Devices:     ['/job:worker/task:7/gpu:0']
Data format: NCHW
Optimizer:   sgd
Variables:   parameter_server
Sync:        True
==========
Generating model
Running warm up
Done warm up
Step	Img/sec	loss
Starting real work at step 160 at time Tue Oct 10 19:43:33 2017
1	on average processed 32 images in 0.718912 seconds	9.786
2	on average processed 32 images in 0.695334 seconds	9.608
3	on average processed 32 images in 0.705488 seconds	9.797
4	on average processed 32 images in 0.712559 seconds	9.621
5	on average processed 32 images in 0.718658 seconds	9.713
6	on average processed 32 images in 0.718247 seconds	9.675
7	on average processed 32 images in 0.719144 seconds	9.700
8	on average processed 32 images in 0.719467 seconds	10.051
9	on average processed 32 images in 0.718240 seconds	9.971
10	on average processed 32 images in 0.715497 seconds	9.762
11	on average processed 32 images in 0.716065 seconds	9.779
12	on average processed 32 images in 0.716753 seconds	9.590
13	on average processed 32 images in 0.717168 seconds	9.762
14	on average processed 32 images in 0.717940 seconds	9.843
15	on average processed 32 images in 0.719500 seconds	9.646
16	on average processed 32 images in 0.719339 seconds	9.717
17	on average processed 32 images in 0.719023 seconds	9.567
18	on average processed 32 images in 0.718204 seconds	9.527
19	on average processed 32 images in 0.718654 seconds	10.153
20	on average processed 32 images in 0.718663 seconds	9.683
21	on average processed 32 images in 0.718231 seconds	9.567
22	on average processed 32 images in 0.719077 seconds	9.639
23	on average processed 32 images in 0.720040 seconds	9.616
24	on average processed 32 images in 0.718544 seconds	9.678
25	on average processed 32 images in 0.717946 seconds	9.854
26	on average processed 32 images in 0.719037 seconds	9.580
27	on average processed 32 images in 0.719117 seconds	9.642
28	on average processed 32 images in 0.718750 seconds	9.655
29	on average processed 32 images in 0.718938 seconds	9.557
30	on average processed 32 images in 0.719002 seconds	9.548
31	on average processed 32 images in 0.719023 seconds	9.479
32	on average processed 32 images in 0.719523 seconds	9.610
33	on average processed 32 images in 0.719678 seconds	9.620
34	on average processed 32 images in 0.719767 seconds	10.112
35	on average processed 32 images in 0.718688 seconds	9.860
36	on average processed 32 images in 0.718637 seconds	9.773
37	on average processed 32 images in 0.719249 seconds	9.753
38	on average processed 32 images in 0.719047 seconds	9.619
39	on average processed 32 images in 0.717388 seconds	10.463
40	on average processed 32 images in 0.715762 seconds	9.717
41	on average processed 32 images in 0.715626 seconds	9.852
42	on average processed 32 images in 0.715583 seconds	10.266
43	on average processed 32 images in 0.715927 seconds	9.652
44	on average processed 32 images in 0.715602 seconds	10.067
45	on average processed 32 images in 0.716046 seconds	9.400
46	on average processed 32 images in 0.716365 seconds	9.565
47	on average processed 32 images in 0.716667 seconds	9.567
48	on average processed 32 images in 0.715723 seconds	9.545
49	on average processed 32 images in 0.715394 seconds	9.652
50	on average processed 32 images in 0.715718 seconds	9.440
51	on average processed 32 images in 0.715898 seconds	9.414
52	on average processed 32 images in 0.715662 seconds	9.451
53	on average processed 32 images in 0.715815 seconds	9.703
54	on average processed 32 images in 0.715536 seconds	9.725
55	on average processed 32 images in 0.715848 seconds	9.438
56	on average processed 32 images in 0.716115 seconds	9.600
57	on average processed 32 images in 0.715969 seconds	9.561
58	on average processed 32 images in 0.716061 seconds	9.768
59	on average processed 32 images in 0.715984 seconds	9.577
60	on average processed 32 images in 0.716112 seconds	9.503
61	on average processed 32 images in 0.716536 seconds	9.767
62	on average processed 32 images in 0.716613 seconds	9.570
63	on average processed 32 images in 0.718162 seconds	9.608
64	on average processed 32 images in 0.718236 seconds	9.500
65	on average processed 32 images in 0.718926 seconds	9.654
66	on average processed 32 images in 0.720508 seconds	9.543
67	on average processed 32 images in 0.720696 seconds	9.903
68	on average processed 32 images in 0.720814 seconds	10.159
69	on average processed 32 images in 0.721343 seconds	9.585
70	on average processed 32 images in 0.721092 seconds	9.591
71	on average processed 32 images in 0.721245 seconds	9.483
72	on average processed 32 images in 0.721421 seconds	9.599
73	on average processed 32 images in 0.721807 seconds	9.643
74	on average processed 32 images in 0.721738 seconds	9.503
75	on average processed 32 images in 0.721612 seconds	9.449
76	on average processed 32 images in 0.721475 seconds	9.627
77	on average processed 32 images in 0.720752 seconds	9.422
78	on average processed 32 images in 0.720674 seconds	9.596
79	on average processed 32 images in 0.721106 seconds	9.516
80	on average processed 32 images in 0.721060 seconds	9.506
81	on average processed 32 images in 0.721060 seconds	9.405
82	on average processed 32 images in 0.721040 seconds	9.454
83	on average processed 32 images in 0.720930 seconds	9.402
84	on average processed 32 images in 0.720941 seconds	9.544
85	on average processed 32 images in 0.720849 seconds	9.942
86	on average processed 32 images in 0.720954 seconds	9.404
87	on average processed 32 images in 0.720995 seconds	9.602
88	on average processed 32 images in 0.721153 seconds	9.509
89	on average processed 32 images in 0.721355 seconds	9.774
90	on average processed 32 images in 0.721428 seconds	9.507
91	on average processed 32 images in 0.721610 seconds	9.441
92	on average processed 32 images in 0.721297 seconds	9.632
93	on average processed 32 images in 0.721366 seconds	9.415
94	on average processed 32 images in 0.721197 seconds	9.601
95	on average processed 32 images in 0.721078 seconds	9.422
96	on average processed 32 images in 0.721124 seconds	9.418
97	on average processed 32 images in 0.721000 seconds	9.488
98	on average processed 32 images in 0.720934 seconds	9.463
99	on average processed 32 images in 0.720574 seconds	9.466
100	on average processed 32 images in 0.720138 seconds	9.517
Finishing real work at step 1760 at time Tue Oct 10 19:44:45 2017
----------------------------------------------------------------
total images/sec: 711.41
----------------------------------------------------------------
