2017-10-11 22:18:13.172504: I tensorflow/core/common_runtime/gpu/gpu_device.cc:940] Found device 0 with properties: 
name: Tesla P100-PCIE-16GB
major: 6 minor: 0 memoryClockRate (GHz) 1.3285
pciBusID 0000:02:00.0
Total memory: 15.89GiB
Free memory: 15.61GiB
2017-10-11 22:18:13.173134: I tensorflow/core/common_runtime/gpu/gpu_device.cc:961] DMA: 0 
2017-10-11 22:18:13.173151: I tensorflow/core/common_runtime/gpu/gpu_device.cc:971] 0:   Y 
2017-10-11 22:18:13.173170: I tensorflow/core/common_runtime/gpu/gpu_device.cc:1030] Creating TensorFlow device (/gpu:0) -> (device: 0, name: Tesla P100-PCIE-16GB, pci bus id: 0000:02:00.0)
2017-10-11 22:18:13.377239: I tensorflow/core/distributed_runtime/rpc/grpc_channel.cc:215] Initialize GrpcChannelCache for job ps -> {0 -> nid02829:2230, 1 -> nid02830:2230, 2 -> nid02831:2230, 3 -> nid02832:2230, 4 -> nid02833:2230, 5 -> nid02834:2230, 6 -> nid02835:2230, 7 -> nid02836:2230}
2017-10-11 22:18:13.377280: I tensorflow/core/distributed_runtime/rpc/grpc_channel.cc:215] Initialize GrpcChannelCache for job worker -> {0 -> nid02829:2220, 1 -> nid02830:2220, 2 -> nid02831:2220, 3 -> nid02832:2220, 4 -> localhost:2220, 5 -> nid02834:2220, 6 -> nid02835:2220, 7 -> nid02836:2220}
2017-10-11 22:18:13.377999: I tensorflow/core/distributed_runtime/rpc/grpc_server_lib.cc:316] Started server with target: grpc://localhost:2220
2017-10-11 22:18:31.769637: I tensorflow/core/distributed_runtime/master_session.cc:999] Start master session a1118eace74ab0e2 with config: 
intra_op_parallelism_threads: 1
allow_soft_placement: true

TensorFlow:  1.2
Model:       resnet50
Mode:        training
Batch size:  32 global
             32.0 per device
Devices:     ['/job:worker/task:4/gpu:0']
Data format: NCHW
Optimizer:   sgd
Variables:   parameter_server
Sync:        True
==========
Generating model
Running warm up
Done warm up
Step	Img/sec	loss
Starting real work at step 80 at time Wed Oct 11 22:19:15 2017
1	on average processed 32 images in 0.316748 seconds	7.682
2	on average processed 32 images in 0.318359 seconds	8.064
3	on average processed 32 images in 0.310601 seconds	7.779
4	on average processed 32 images in 0.311894 seconds	8.096
5	on average processed 32 images in 0.311340 seconds	7.871
6	on average processed 32 images in 0.311018 seconds	7.948
7	on average processed 32 images in 0.309857 seconds	7.970
8	on average processed 32 images in 0.308500 seconds	8.109
9	on average processed 32 images in 0.309434 seconds	8.040
10	on average processed 32 images in 0.309815 seconds	7.941
11	on average processed 32 images in 0.309464 seconds	7.894
12	on average processed 32 images in 0.308706 seconds	8.114
13	on average processed 32 images in 0.308080 seconds	8.034
14	on average processed 32 images in 0.307311 seconds	7.829
15	on average processed 32 images in 0.307451 seconds	8.105
16	on average processed 32 images in 0.307226 seconds	8.093
17	on average processed 32 images in 0.306931 seconds	7.886
18	on average processed 32 images in 0.307454 seconds	8.196
19	on average processed 32 images in 0.306860 seconds	8.046
20	on average processed 32 images in 0.306884 seconds	7.859
21	on average processed 32 images in 0.306675 seconds	8.129
22	on average processed 32 images in 0.306746 seconds	7.673
23	on average processed 32 images in 0.305840 seconds	7.893
24	on average processed 32 images in 0.305884 seconds	7.996
25	on average processed 32 images in 0.306098 seconds	7.868
26	on average processed 32 images in 0.306085 seconds	7.822
27	on average processed 32 images in 0.306257 seconds	7.816
28	on average processed 32 images in 0.306186 seconds	7.848
29	on average processed 32 images in 0.305877 seconds	8.022
30	on average processed 32 images in 0.306173 seconds	7.892
31	on average processed 32 images in 0.306411 seconds	7.850
32	on average processed 32 images in 0.306294 seconds	8.061
33	on average processed 32 images in 0.306836 seconds	7.888
34	on average processed 32 images in 0.306974 seconds	7.908
35	on average processed 32 images in 0.306768 seconds	8.062
36	on average processed 32 images in 0.306959 seconds	7.883
37	on average processed 32 images in 0.306791 seconds	7.816
38	on average processed 32 images in 0.306492 seconds	7.821
39	on average processed 32 images in 0.306344 seconds	8.022
40	on average processed 32 images in 0.306092 seconds	8.036
41	on average processed 32 images in 0.306047 seconds	8.044
42	on average processed 32 images in 0.306328 seconds	8.028
43	on average processed 32 images in 0.306313 seconds	7.764
44	on average processed 32 images in 0.306107 seconds	7.826
45	on average processed 32 images in 0.306007 seconds	8.045
46	on average processed 32 images in 0.305892 seconds	7.842
47	on average processed 32 images in 0.305979 seconds	7.854
48	on average processed 32 images in 0.306252 seconds	7.986
49	on average processed 32 images in 0.306576 seconds	7.952
50	on average processed 32 images in 0.306696 seconds	8.051
51	on average processed 32 images in 0.306542 seconds	8.091
52	on average processed 32 images in 0.306221 seconds	7.941
53	on average processed 32 images in 0.306247 seconds	7.828
54	on average processed 32 images in 0.306048 seconds	8.033
55	on average processed 32 images in 0.305872 seconds	7.907
56	on average processed 32 images in 0.305861 seconds	7.753
57	on average processed 32 images in 0.305945 seconds	7.773
58	on average processed 32 images in 0.306005 seconds	7.742
59	on average processed 32 images in 0.305929 seconds	7.945
60	on average processed 32 images in 0.306021 seconds	7.852
61	on average processed 32 images in 0.305969 seconds	7.963
62	on average processed 32 images in 0.306174 seconds	7.958
63	on average processed 32 images in 0.306152 seconds	7.806
64	on average processed 32 images in 0.306326 seconds	7.857
65	on average processed 32 images in 0.306266 seconds	7.941
66	on average processed 32 images in 0.306282 seconds	8.003
67	on average processed 32 images in 0.306191 seconds	7.852
68	on average processed 32 images in 0.306086 seconds	7.792
69	on average processed 32 images in 0.305871 seconds	7.851
70	on average processed 32 images in 0.305962 seconds	7.821
71	on average processed 32 images in 0.305909 seconds	7.840
72	on average processed 32 images in 0.305973 seconds	7.863
73	on average processed 32 images in 0.306060 seconds	7.936
74	on average processed 32 images in 0.306105 seconds	8.015
75	on average processed 32 images in 0.306229 seconds	7.807
76	on average processed 32 images in 0.306185 seconds	7.740
77	on average processed 32 images in 0.306150 seconds	7.746
78	on average processed 32 images in 0.306253 seconds	7.729
79	on average processed 32 images in 0.306268 seconds	7.812
80	on average processed 32 images in 0.306197 seconds	7.843
81	on average processed 32 images in 0.306364 seconds	7.820
82	on average processed 32 images in 0.306361 seconds	8.054
83	on average processed 32 images in 0.306337 seconds	7.806
84	on average processed 32 images in 0.306322 seconds	7.709
85	on average processed 32 images in 0.306241 seconds	7.897
86	on average processed 32 images in 0.306202 seconds	7.674
87	on average processed 32 images in 0.306093 seconds	7.817
88	on average processed 32 images in 0.306028 seconds	7.812
89	on average processed 32 images in 0.305936 seconds	7.838
90	on average processed 32 images in 0.305954 seconds	7.977
91	on average processed 32 images in 0.305933 seconds	7.920
92	on average processed 32 images in 0.305918 seconds	7.973
93	on average processed 32 images in 0.305891 seconds	7.811
94	on average processed 32 images in 0.305967 seconds	7.903
95	on average processed 32 images in 0.305934 seconds	7.658
96	on average processed 32 images in 0.305919 seconds	7.886
97	on average processed 32 images in 0.306014 seconds	7.912
98	on average processed 32 images in 0.305924 seconds	7.970
99	on average processed 32 images in 0.305956 seconds	7.868
100	on average processed 32 images in 0.305846 seconds	7.809
Finishing real work at step 879 at time Wed Oct 11 22:19:46 2017
----------------------------------------------------------------
total images/sec: 837.24
----------------------------------------------------------------
