2017-10-09 00:45:57.121251: I tensorflow/core/common_runtime/gpu/gpu_device.cc:940] Found device 0 with properties: 
name: Tesla P100-PCIE-16GB
major: 6 minor: 0 memoryClockRate (GHz) 1.3285
pciBusID 0000:02:00.0
Total memory: 15.89GiB
Free memory: 15.61GiB
2017-10-09 00:45:57.121704: I tensorflow/core/common_runtime/gpu/gpu_device.cc:961] DMA: 0 
2017-10-09 00:45:57.121721: I tensorflow/core/common_runtime/gpu/gpu_device.cc:971] 0:   Y 
2017-10-09 00:45:57.124195: I tensorflow/core/common_runtime/gpu/gpu_device.cc:1030] Creating TensorFlow device (/gpu:0) -> (device: 0, name: Tesla P100-PCIE-16GB, pci bus id: 0000:02:00.0)
2017-10-09 00:45:57.317289: I tensorflow/core/distributed_runtime/rpc/grpc_channel.cc:215] Initialize GrpcChannelCache for job ps -> {0 -> nid07142:2230, 1 -> nid07143:2230, 2 -> nid07144:2230, 3 -> nid07145:2230, 4 -> nid07146:2230, 5 -> nid07147:2230, 6 -> nid07148:2230, 7 -> nid07149:2230}
2017-10-09 00:45:57.317330: I tensorflow/core/distributed_runtime/rpc/grpc_channel.cc:215] Initialize GrpcChannelCache for job worker -> {0 -> nid07142:2220, 1 -> nid07143:2220, 2 -> localhost:2220, 3 -> nid07145:2220, 4 -> nid07146:2220, 5 -> nid07147:2220, 6 -> nid07148:2220, 7 -> nid07149:2220}
2017-10-09 00:45:57.318083: I tensorflow/core/distributed_runtime/rpc/grpc_server_lib.cc:316] Started server with target: grpc://localhost:2220
2017-10-09 00:46:18.060596: I tensorflow/core/distributed_runtime/master.cc:209] CreateSession still waiting for response from worker: /job:ps/replica:0/task:0
2017-10-09 00:46:18.060649: I tensorflow/core/distributed_runtime/master.cc:209] CreateSession still waiting for response from worker: /job:ps/replica:0/task:3
2017-10-09 00:46:18.060661: I tensorflow/core/distributed_runtime/master.cc:209] CreateSession still waiting for response from worker: /job:ps/replica:0/task:4
2017-10-09 00:46:18.060669: I tensorflow/core/distributed_runtime/master.cc:209] CreateSession still waiting for response from worker: /job:worker/replica:0/task:0
2017-10-09 00:46:18.060677: I tensorflow/core/distributed_runtime/master.cc:209] CreateSession still waiting for response from worker: /job:worker/replica:0/task:3
2017-10-09 00:46:18.060684: I tensorflow/core/distributed_runtime/master.cc:209] CreateSession still waiting for response from worker: /job:worker/replica:0/task:4
2017-10-09 00:46:18.060691: I tensorflow/core/distributed_runtime/master.cc:209] CreateSession still waiting for response from worker: /job:worker/replica:0/task:6
2017-10-09 00:46:28.060763: I tensorflow/core/distributed_runtime/master.cc:209] CreateSession still waiting for response from worker: /job:ps/replica:0/task:0
2017-10-09 00:46:28.060844: I tensorflow/core/distributed_runtime/master.cc:209] CreateSession still waiting for response from worker: /job:ps/replica:0/task:3
2017-10-09 00:46:28.060856: I tensorflow/core/distributed_runtime/master.cc:209] CreateSession still waiting for response from worker: /job:worker/replica:0/task:0
2017-10-09 00:46:28.060864: I tensorflow/core/distributed_runtime/master.cc:209] CreateSession still waiting for response from worker: /job:worker/replica:0/task:3
2017-10-09 00:46:38.060937: I tensorflow/core/distributed_runtime/master.cc:209] CreateSession still waiting for response from worker: /job:ps/replica:0/task:3
2017-10-09 00:46:38.061021: I tensorflow/core/distributed_runtime/master.cc:209] CreateSession still waiting for response from worker: /job:worker/replica:0/task:0
2017-10-09 00:46:38.061045: I tensorflow/core/distributed_runtime/master.cc:209] CreateSession still waiting for response from worker: /job:worker/replica:0/task:3
2017-10-09 00:46:48.061117: I tensorflow/core/distributed_runtime/master.cc:209] CreateSession still waiting for response from worker: /job:ps/replica:0/task:3
2017-10-09 00:46:48.061193: I tensorflow/core/distributed_runtime/master.cc:209] CreateSession still waiting for response from worker: /job:worker/replica:0/task:3
2017-10-09 00:46:53.457165: I tensorflow/core/distributed_runtime/master_session.cc:999] Start master session a915c1d85e398dfa with config: 
intra_op_parallelism_threads: 1
allow_soft_placement: true

2017-10-09 00:47:27.087218: I tensorflow/core/distributed_runtime/master_session.cc:999] Start master session 17e11ee362f63f2c with config: 
intra_op_parallelism_threads: 1
allow_soft_placement: true

TensorFlow:  1.2
Model:       alexnet
Mode:        training
Batch size:  32 global
             32.0 per device
Devices:     ['/job:worker/task:2/gpu:0']
Data format: NCHW
Optimizer:   sgd
Variables:   distributed_replicated
Sync:        True
==========
Generating model
Running warm up
Done warm up
Step	Img/sec	loss
Starting real work at step 80 at time Mon Oct  9 00:48:05 2017
1	on average processed 32 images in 3.332500 seconds	7.285
2	on average processed 32 images in 3.407606 seconds	7.278
3	on average processed 32 images in 3.457548 seconds	7.266
4	on average processed 32 images in 3.465708 seconds	7.272
5	on average processed 32 images in 3.432124 seconds	7.274
6	on average processed 32 images in 3.452833 seconds	7.280
7	on average processed 32 images in 3.460483 seconds	7.278
8	on average processed 32 images in 3.457890 seconds	7.279
9	on average processed 32 images in 3.464784 seconds	7.275
10	on average processed 32 images in 3.481814 seconds	7.281
11	on average processed 32 images in 3.479003 seconds	7.275
12	on average processed 32 images in 3.472025 seconds	7.263
13	on average processed 32 images in 3.472851 seconds	7.275
14	on average processed 32 images in 3.467577 seconds	7.276
15	on average processed 32 images in 3.459441 seconds	7.269
16	on average processed 32 images in 3.457652 seconds	7.282
17	on average processed 32 images in 3.466114 seconds	7.280
18	on average processed 32 images in 3.463214 seconds	7.278
19	on average processed 32 images in 3.457048 seconds	7.268
20	on average processed 32 images in 3.455133 seconds	7.272
21	on average processed 32 images in 3.457186 seconds	7.276
22	on average processed 32 images in 3.453714 seconds	7.276
23	on average processed 32 images in 3.451402 seconds	7.271
24	on average processed 32 images in 3.449630 seconds	7.280
25	on average processed 32 images in 3.451783 seconds	7.272
26	on average processed 32 images in 3.448112 seconds	7.275
27	on average processed 32 images in 3.442535 seconds	7.260
28	on average processed 32 images in 3.441657 seconds	7.284
29	on average processed 32 images in 3.438887 seconds	7.271
30	on average processed 32 images in 3.438938 seconds	7.264
31	on average processed 32 images in 3.437280 seconds	7.281
32	on average processed 32 images in 3.431915 seconds	7.283
33	on average processed 32 images in 3.432017 seconds	7.271
34	on average processed 32 images in 3.429327 seconds	7.274
35	on average processed 32 images in 3.425889 seconds	7.286
36	on average processed 32 images in 3.423734 seconds	7.271
37	on average processed 32 images in 3.421986 seconds	7.269
38	on average processed 32 images in 3.425634 seconds	7.272
39	on average processed 32 images in 3.427643 seconds	7.292
40	on average processed 32 images in 3.428092 seconds	7.268
41	on average processed 32 images in 3.427765 seconds	7.278
42	on average processed 32 images in 3.429478 seconds	7.272
43	on average processed 32 images in 3.425583 seconds	7.259
44	on average processed 32 images in 3.425541 seconds	7.271
45	on average processed 32 images in 3.425602 seconds	7.275
46	on average processed 32 images in 3.426990 seconds	7.298
47	on average processed 32 images in 3.428933 seconds	7.276
48	on average processed 32 images in 3.431006 seconds	7.260
49	on average processed 32 images in 3.434264 seconds	7.264
50	on average processed 32 images in 3.437299 seconds	7.278
51	on average processed 32 images in 3.437080 seconds	7.290
52	on average processed 32 images in 3.438144 seconds	7.291
53	on average processed 32 images in 3.438258 seconds	7.280
54	on average processed 32 images in 3.437837 seconds	7.272
55	on average processed 32 images in 3.436886 seconds	7.274
56	on average processed 32 images in 3.438151 seconds	7.283
57	on average processed 32 images in 3.437920 seconds	7.271
58	on average processed 32 images in 3.435161 seconds	7.284
59	on average processed 32 images in 3.435031 seconds	7.275
60	on average processed 32 images in 3.434668 seconds	7.271
61	on average processed 32 images in 3.437745 seconds	7.277
62	on average processed 32 images in 3.438066 seconds	7.273
63	on average processed 32 images in 3.436939 seconds	7.269
64	on average processed 32 images in 3.437872 seconds	7.271
65	on average processed 32 images in 3.438570 seconds	7.284
66	on average processed 32 images in 3.438219 seconds	7.296
67	on average processed 32 images in 3.438623 seconds	7.276
68	on average processed 32 images in 3.437439 seconds	7.263
69	on average processed 32 images in 3.435801 seconds	7.268
70	on average processed 32 images in 3.434689 seconds	7.290
71	on average processed 32 images in 3.436311 seconds	7.237
72	on average processed 32 images in 3.437048 seconds	7.259
73	on average processed 32 images in 3.437790 seconds	7.262
74	on average processed 32 images in 3.434047 seconds	7.257
75	on average processed 32 images in 3.434270 seconds	7.268
76	on average processed 32 images in 3.435982 seconds	7.248
77	on average processed 32 images in 3.437829 seconds	7.265
78	on average processed 32 images in 3.438550 seconds	7.265
79	on average processed 32 images in 3.437745 seconds	7.278
80	on average processed 32 images in 3.438853 seconds	7.281
81	on average processed 32 images in 3.439904 seconds	7.286
82	on average processed 32 images in 3.439776 seconds	7.268
83	on average processed 32 images in 3.439366 seconds	7.276
84	on average processed 32 images in 3.438446 seconds	7.275
85	on average processed 32 images in 3.436298 seconds	7.274
86	on average processed 32 images in 3.437350 seconds	7.248
87	on average processed 32 images in 3.437638 seconds	7.249
88	on average processed 32 images in 3.439205 seconds	7.255
89	on average processed 32 images in 3.438428 seconds	7.268
90	on average processed 32 images in 3.438565 seconds	7.271
91	on average processed 32 images in 3.438607 seconds	7.300
92	on average processed 32 images in 3.438451 seconds	7.272
93	on average processed 32 images in 3.438163 seconds	7.266
94	on average processed 32 images in 3.440213 seconds	7.261
95	on average processed 32 images in 3.439807 seconds	7.277
96	on average processed 32 images in 3.441617 seconds	7.266
97	on average processed 32 images in 3.442604 seconds	7.269
98	on average processed 32 images in 3.440115 seconds	7.243
99	on average processed 32 images in 3.440314 seconds	7.288
100	on average processed 32 images in 3.440692 seconds	7.312
Finishing real work at step 880 at time Mon Oct  9 00:53:49 2017
----------------------------------------------------------------
total images/sec: 74.41
----------------------------------------------------------------
